"designator","value","qty","footprint","MPN","MPN2","DK_MPN"
"C1,C3","1uF","2","Capacitor_SMD:C_0603_1608Metric","LMK107B7105KA-T","",""
"C2","2.2uF","1","Capacitor_SMD:C_0603_1608Metric","CL10A225KQ8NNNC","",""
"J1","USB_C_Receptacle_USB2.0","1","FootprintsZembia:CX90M-16P","CX90M-16P","",""
"J2,J4","Conn_01x06","2","Connector_JST:JST_PH_B6B-PH-K_1x06_P2.00mm_Vertical","440129-6","",""
"J3","Conn_01x06","1","Connector_JST:JST_PH_B6B-PH-K_1x06_P2.00mm_Vertical","440054-6","",""
"Q1","MBT3904DW1T1G","1","Package_TO_SOT_SMD:SOT-363_SC-70-6","MBT3904DW1T1G","",""
"R1,R2","5.1k","2","Resistors_SMD:R_0603","CR0603-JW-512ELF","",""
"R3,R4","10k","2","Resistors_SMD:R_0603","CR0603-JW-103ELF","",""
"R5","1k","1","Resistors_SMD:R_0603","CR0603-JW-102ELF","",""
"U1","TLV75733PDBVR","1","Package_TO_SOT_SMD:SOT-23-5","MIC5225-3.3YM5","",""
"U2","CP2102N-A02-GQFN24","1","Housings_DFN_QFN:QFN-24-1EP_4x4mm_Pitch0.5mm","CP2102N-A02-GQFN24","",""
