(kicad_sch (version 20211123) (generator eeschema)

  (uuid 4b573aa4-346c-426e-9953-41c8a5264940)

  (paper "A4")

  (lib_symbols
    (symbol "Connector:USB_C_Receptacle_USB2.0" (pin_names (offset 1.016)) (in_bom yes) (on_board yes)
      (property "Reference" "J" (id 0) (at -10.16 19.05 0)
        (effects (font (size 1.27 1.27)) (justify left))
      )
      (property "Value" "USB_C_Receptacle_USB2.0" (id 1) (at 19.05 19.05 0)
        (effects (font (size 1.27 1.27)) (justify right))
      )
      (property "Footprint" "" (id 2) (at 3.81 0 0)
        (effects (font (size 1.27 1.27)) hide)
      )
      (property "Datasheet" "https://www.usb.org/sites/default/files/documents/usb_type-c.zip" (id 3) (at 3.81 0 0)
        (effects (font (size 1.27 1.27)) hide)
      )
      (property "ki_keywords" "usb universal serial bus type-C USB2.0" (id 4) (at 0 0 0)
        (effects (font (size 1.27 1.27)) hide)
      )
      (property "ki_description" "USB 2.0-only Type-C Receptacle connector" (id 5) (at 0 0 0)
        (effects (font (size 1.27 1.27)) hide)
      )
      (property "ki_fp_filters" "USB*C*Receptacle*" (id 6) (at 0 0 0)
        (effects (font (size 1.27 1.27)) hide)
      )
      (symbol "USB_C_Receptacle_USB2.0_0_0"
        (rectangle (start -0.254 -17.78) (end 0.254 -16.764)
          (stroke (width 0) (type default) (color 0 0 0 0))
          (fill (type none))
        )
        (rectangle (start 10.16 -14.986) (end 9.144 -15.494)
          (stroke (width 0) (type default) (color 0 0 0 0))
          (fill (type none))
        )
        (rectangle (start 10.16 -12.446) (end 9.144 -12.954)
          (stroke (width 0) (type default) (color 0 0 0 0))
          (fill (type none))
        )
        (rectangle (start 10.16 -4.826) (end 9.144 -5.334)
          (stroke (width 0) (type default) (color 0 0 0 0))
          (fill (type none))
        )
        (rectangle (start 10.16 -2.286) (end 9.144 -2.794)
          (stroke (width 0) (type default) (color 0 0 0 0))
          (fill (type none))
        )
        (rectangle (start 10.16 0.254) (end 9.144 -0.254)
          (stroke (width 0) (type default) (color 0 0 0 0))
          (fill (type none))
        )
        (rectangle (start 10.16 2.794) (end 9.144 2.286)
          (stroke (width 0) (type default) (color 0 0 0 0))
          (fill (type none))
        )
        (rectangle (start 10.16 7.874) (end 9.144 7.366)
          (stroke (width 0) (type default) (color 0 0 0 0))
          (fill (type none))
        )
        (rectangle (start 10.16 10.414) (end 9.144 9.906)
          (stroke (width 0) (type default) (color 0 0 0 0))
          (fill (type none))
        )
        (rectangle (start 10.16 15.494) (end 9.144 14.986)
          (stroke (width 0) (type default) (color 0 0 0 0))
          (fill (type none))
        )
      )
      (symbol "USB_C_Receptacle_USB2.0_0_1"
        (rectangle (start -10.16 17.78) (end 10.16 -17.78)
          (stroke (width 0.254) (type default) (color 0 0 0 0))
          (fill (type background))
        )
        (arc (start -8.89 -3.81) (mid -6.985 -5.715) (end -5.08 -3.81)
          (stroke (width 0.508) (type default) (color 0 0 0 0))
          (fill (type none))
        )
        (arc (start -7.62 -3.81) (mid -6.985 -4.445) (end -6.35 -3.81)
          (stroke (width 0.254) (type default) (color 0 0 0 0))
          (fill (type none))
        )
        (arc (start -7.62 -3.81) (mid -6.985 -4.445) (end -6.35 -3.81)
          (stroke (width 0.254) (type default) (color 0 0 0 0))
          (fill (type outline))
        )
        (rectangle (start -7.62 -3.81) (end -6.35 3.81)
          (stroke (width 0.254) (type default) (color 0 0 0 0))
          (fill (type outline))
        )
        (arc (start -6.35 3.81) (mid -6.985 4.445) (end -7.62 3.81)
          (stroke (width 0.254) (type default) (color 0 0 0 0))
          (fill (type none))
        )
        (arc (start -6.35 3.81) (mid -6.985 4.445) (end -7.62 3.81)
          (stroke (width 0.254) (type default) (color 0 0 0 0))
          (fill (type outline))
        )
        (arc (start -5.08 3.81) (mid -6.985 5.715) (end -8.89 3.81)
          (stroke (width 0.508) (type default) (color 0 0 0 0))
          (fill (type none))
        )
        (circle (center -2.54 1.143) (radius 0.635)
          (stroke (width 0.254) (type default) (color 0 0 0 0))
          (fill (type outline))
        )
        (circle (center 0 -5.842) (radius 1.27)
          (stroke (width 0) (type default) (color 0 0 0 0))
          (fill (type outline))
        )
        (polyline
          (pts
            (xy -8.89 -3.81)
            (xy -8.89 3.81)
          )
          (stroke (width 0.508) (type default) (color 0 0 0 0))
          (fill (type none))
        )
        (polyline
          (pts
            (xy -5.08 3.81)
            (xy -5.08 -3.81)
          )
          (stroke (width 0.508) (type default) (color 0 0 0 0))
          (fill (type none))
        )
        (polyline
          (pts
            (xy 0 -5.842)
            (xy 0 4.318)
          )
          (stroke (width 0.508) (type default) (color 0 0 0 0))
          (fill (type none))
        )
        (polyline
          (pts
            (xy 0 -3.302)
            (xy -2.54 -0.762)
            (xy -2.54 0.508)
          )
          (stroke (width 0.508) (type default) (color 0 0 0 0))
          (fill (type none))
        )
        (polyline
          (pts
            (xy 0 -2.032)
            (xy 2.54 0.508)
            (xy 2.54 1.778)
          )
          (stroke (width 0.508) (type default) (color 0 0 0 0))
          (fill (type none))
        )
        (polyline
          (pts
            (xy -1.27 4.318)
            (xy 0 6.858)
            (xy 1.27 4.318)
            (xy -1.27 4.318)
          )
          (stroke (width 0.254) (type default) (color 0 0 0 0))
          (fill (type outline))
        )
        (rectangle (start 1.905 1.778) (end 3.175 3.048)
          (stroke (width 0.254) (type default) (color 0 0 0 0))
          (fill (type outline))
        )
      )
      (symbol "USB_C_Receptacle_USB2.0_1_1"
        (pin passive line (at 0 -22.86 90) (length 5.08)
          (name "GND" (effects (font (size 1.27 1.27))))
          (number "A1" (effects (font (size 1.27 1.27))))
        )
        (pin passive line (at 0 -22.86 90) (length 5.08) hide
          (name "GND" (effects (font (size 1.27 1.27))))
          (number "A12" (effects (font (size 1.27 1.27))))
        )
        (pin passive line (at 15.24 15.24 180) (length 5.08)
          (name "VBUS" (effects (font (size 1.27 1.27))))
          (number "A4" (effects (font (size 1.27 1.27))))
        )
        (pin bidirectional line (at 15.24 10.16 180) (length 5.08)
          (name "CC1" (effects (font (size 1.27 1.27))))
          (number "A5" (effects (font (size 1.27 1.27))))
        )
        (pin bidirectional line (at 15.24 -2.54 180) (length 5.08)
          (name "D+" (effects (font (size 1.27 1.27))))
          (number "A6" (effects (font (size 1.27 1.27))))
        )
        (pin bidirectional line (at 15.24 2.54 180) (length 5.08)
          (name "D-" (effects (font (size 1.27 1.27))))
          (number "A7" (effects (font (size 1.27 1.27))))
        )
        (pin bidirectional line (at 15.24 -12.7 180) (length 5.08)
          (name "SBU1" (effects (font (size 1.27 1.27))))
          (number "A8" (effects (font (size 1.27 1.27))))
        )
        (pin passive line (at 15.24 15.24 180) (length 5.08) hide
          (name "VBUS" (effects (font (size 1.27 1.27))))
          (number "A9" (effects (font (size 1.27 1.27))))
        )
        (pin passive line (at 0 -22.86 90) (length 5.08) hide
          (name "GND" (effects (font (size 1.27 1.27))))
          (number "B1" (effects (font (size 1.27 1.27))))
        )
        (pin passive line (at 0 -22.86 90) (length 5.08) hide
          (name "GND" (effects (font (size 1.27 1.27))))
          (number "B12" (effects (font (size 1.27 1.27))))
        )
        (pin passive line (at 15.24 15.24 180) (length 5.08) hide
          (name "VBUS" (effects (font (size 1.27 1.27))))
          (number "B4" (effects (font (size 1.27 1.27))))
        )
        (pin bidirectional line (at 15.24 7.62 180) (length 5.08)
          (name "CC2" (effects (font (size 1.27 1.27))))
          (number "B5" (effects (font (size 1.27 1.27))))
        )
        (pin bidirectional line (at 15.24 -5.08 180) (length 5.08)
          (name "D+" (effects (font (size 1.27 1.27))))
          (number "B6" (effects (font (size 1.27 1.27))))
        )
        (pin bidirectional line (at 15.24 0 180) (length 5.08)
          (name "D-" (effects (font (size 1.27 1.27))))
          (number "B7" (effects (font (size 1.27 1.27))))
        )
        (pin bidirectional line (at 15.24 -15.24 180) (length 5.08)
          (name "SBU2" (effects (font (size 1.27 1.27))))
          (number "B8" (effects (font (size 1.27 1.27))))
        )
        (pin passive line (at 15.24 15.24 180) (length 5.08) hide
          (name "VBUS" (effects (font (size 1.27 1.27))))
          (number "B9" (effects (font (size 1.27 1.27))))
        )
        (pin passive line (at -7.62 -22.86 90) (length 5.08)
          (name "SHIELD" (effects (font (size 1.27 1.27))))
          (number "S1" (effects (font (size 1.27 1.27))))
        )
      )
    )
    (symbol "Connector_Generic:Conn_01x06" (pin_names (offset 1.016) hide) (in_bom yes) (on_board yes)
      (property "Reference" "J" (id 0) (at 0 7.62 0)
        (effects (font (size 1.27 1.27)))
      )
      (property "Value" "Conn_01x06" (id 1) (at 0 -10.16 0)
        (effects (font (size 1.27 1.27)))
      )
      (property "Footprint" "" (id 2) (at 0 0 0)
        (effects (font (size 1.27 1.27)) hide)
      )
      (property "Datasheet" "~" (id 3) (at 0 0 0)
        (effects (font (size 1.27 1.27)) hide)
      )
      (property "ki_keywords" "connector" (id 4) (at 0 0 0)
        (effects (font (size 1.27 1.27)) hide)
      )
      (property "ki_description" "Generic connector, single row, 01x06, script generated (kicad-library-utils/schlib/autogen/connector/)" (id 5) (at 0 0 0)
        (effects (font (size 1.27 1.27)) hide)
      )
      (property "ki_fp_filters" "Connector*:*_1x??_*" (id 6) (at 0 0 0)
        (effects (font (size 1.27 1.27)) hide)
      )
      (symbol "Conn_01x06_1_1"
        (rectangle (start -1.27 -7.493) (end 0 -7.747)
          (stroke (width 0.1524) (type default) (color 0 0 0 0))
          (fill (type none))
        )
        (rectangle (start -1.27 -4.953) (end 0 -5.207)
          (stroke (width 0.1524) (type default) (color 0 0 0 0))
          (fill (type none))
        )
        (rectangle (start -1.27 -2.413) (end 0 -2.667)
          (stroke (width 0.1524) (type default) (color 0 0 0 0))
          (fill (type none))
        )
        (rectangle (start -1.27 0.127) (end 0 -0.127)
          (stroke (width 0.1524) (type default) (color 0 0 0 0))
          (fill (type none))
        )
        (rectangle (start -1.27 2.667) (end 0 2.413)
          (stroke (width 0.1524) (type default) (color 0 0 0 0))
          (fill (type none))
        )
        (rectangle (start -1.27 5.207) (end 0 4.953)
          (stroke (width 0.1524) (type default) (color 0 0 0 0))
          (fill (type none))
        )
        (rectangle (start -1.27 6.35) (end 1.27 -8.89)
          (stroke (width 0.254) (type default) (color 0 0 0 0))
          (fill (type background))
        )
        (pin passive line (at -5.08 5.08 0) (length 3.81)
          (name "Pin_1" (effects (font (size 1.27 1.27))))
          (number "1" (effects (font (size 1.27 1.27))))
        )
        (pin passive line (at -5.08 2.54 0) (length 3.81)
          (name "Pin_2" (effects (font (size 1.27 1.27))))
          (number "2" (effects (font (size 1.27 1.27))))
        )
        (pin passive line (at -5.08 0 0) (length 3.81)
          (name "Pin_3" (effects (font (size 1.27 1.27))))
          (number "3" (effects (font (size 1.27 1.27))))
        )
        (pin passive line (at -5.08 -2.54 0) (length 3.81)
          (name "Pin_4" (effects (font (size 1.27 1.27))))
          (number "4" (effects (font (size 1.27 1.27))))
        )
        (pin passive line (at -5.08 -5.08 0) (length 3.81)
          (name "Pin_5" (effects (font (size 1.27 1.27))))
          (number "5" (effects (font (size 1.27 1.27))))
        )
        (pin passive line (at -5.08 -7.62 0) (length 3.81)
          (name "Pin_6" (effects (font (size 1.27 1.27))))
          (number "6" (effects (font (size 1.27 1.27))))
        )
      )
    )
    (symbol "Jumper:Jumper_3_Open" (pin_names (offset 0) hide) (in_bom yes) (on_board yes)
      (property "Reference" "JP" (id 0) (at -2.54 -2.54 0)
        (effects (font (size 1.27 1.27)))
      )
      (property "Value" "Jumper_3_Open" (id 1) (at 0 2.794 0)
        (effects (font (size 1.27 1.27)))
      )
      (property "Footprint" "" (id 2) (at 0 0 0)
        (effects (font (size 1.27 1.27)) hide)
      )
      (property "Datasheet" "~" (id 3) (at 0 0 0)
        (effects (font (size 1.27 1.27)) hide)
      )
      (property "ki_keywords" "Jumper SPDT" (id 4) (at 0 0 0)
        (effects (font (size 1.27 1.27)) hide)
      )
      (property "ki_description" "Jumper, 3-pole, both open" (id 5) (at 0 0 0)
        (effects (font (size 1.27 1.27)) hide)
      )
      (property "ki_fp_filters" "Jumper* TestPoint*3Pads* TestPoint*Bridge*" (id 6) (at 0 0 0)
        (effects (font (size 1.27 1.27)) hide)
      )
      (symbol "Jumper_3_Open_0_0"
        (circle (center -3.302 0) (radius 0.508)
          (stroke (width 0) (type default) (color 0 0 0 0))
          (fill (type none))
        )
        (circle (center 0 0) (radius 0.508)
          (stroke (width 0) (type default) (color 0 0 0 0))
          (fill (type none))
        )
        (circle (center 3.302 0) (radius 0.508)
          (stroke (width 0) (type default) (color 0 0 0 0))
          (fill (type none))
        )
      )
      (symbol "Jumper_3_Open_0_1"
        (arc (start -0.254 1.016) (mid -1.651 1.4992) (end -3.048 1.016)
          (stroke (width 0) (type default) (color 0 0 0 0))
          (fill (type none))
        )
        (polyline
          (pts
            (xy 0 -0.508)
            (xy 0 -1.27)
          )
          (stroke (width 0) (type default) (color 0 0 0 0))
          (fill (type none))
        )
        (arc (start 3.048 1.016) (mid 1.651 1.4992) (end 0.254 1.016)
          (stroke (width 0) (type default) (color 0 0 0 0))
          (fill (type none))
        )
      )
      (symbol "Jumper_3_Open_1_1"
        (pin passive line (at -6.35 0 0) (length 2.54)
          (name "A" (effects (font (size 1.27 1.27))))
          (number "1" (effects (font (size 1.27 1.27))))
        )
        (pin passive line (at 0 -3.81 90) (length 2.54)
          (name "C" (effects (font (size 1.27 1.27))))
          (number "2" (effects (font (size 1.27 1.27))))
        )
        (pin passive line (at 6.35 0 180) (length 2.54)
          (name "B" (effects (font (size 1.27 1.27))))
          (number "3" (effects (font (size 1.27 1.27))))
        )
      )
    )
    (symbol "ProgramadorTelitESP32-rescue:C-device" (pin_numbers hide) (pin_names (offset 0.254)) (in_bom yes) (on_board yes)
      (property "Reference" "C" (id 0) (at 0.635 2.54 0)
        (effects (font (size 1.27 1.27)) (justify left))
      )
      (property "Value" "C-device" (id 1) (at 0.635 -2.54 0)
        (effects (font (size 1.27 1.27)) (justify left))
      )
      (property "Footprint" "" (id 2) (at 0.9652 -3.81 0)
        (effects (font (size 1.27 1.27)) hide)
      )
      (property "Datasheet" "" (id 3) (at 0 0 0)
        (effects (font (size 1.27 1.27)) hide)
      )
      (property "ki_fp_filters" "C_*" (id 4) (at 0 0 0)
        (effects (font (size 1.27 1.27)) hide)
      )
      (symbol "C-device_0_1"
        (polyline
          (pts
            (xy -2.032 -0.762)
            (xy 2.032 -0.762)
          )
          (stroke (width 0.508) (type default) (color 0 0 0 0))
          (fill (type none))
        )
        (polyline
          (pts
            (xy -2.032 0.762)
            (xy 2.032 0.762)
          )
          (stroke (width 0.508) (type default) (color 0 0 0 0))
          (fill (type none))
        )
      )
      (symbol "C-device_1_1"
        (pin passive line (at 0 3.81 270) (length 2.794)
          (name "~" (effects (font (size 1.27 1.27))))
          (number "1" (effects (font (size 1.27 1.27))))
        )
        (pin passive line (at 0 -3.81 90) (length 2.794)
          (name "~" (effects (font (size 1.27 1.27))))
          (number "2" (effects (font (size 1.27 1.27))))
        )
      )
    )
    (symbol "ProgramadorTelitESP32-rescue:CP2102N-A01-GQFN24-silabs-birdchile-rescue" (pin_names (offset 1.016)) (in_bom yes) (on_board yes)
      (property "Reference" "U" (id 0) (at -5.08 22.225 0)
        (effects (font (size 1.27 1.27)) (justify right))
      )
      (property "Value" "CP2102N-A01-GQFN24-silabs-birdchile-rescue" (id 1) (at -5.08 20.32 0)
        (effects (font (size 1.27 1.27)) (justify right))
      )
      (property "Footprint" "Housings_DFN_QFN:QFN-24-1EP_4x4mm_Pitch0.5mm" (id 2) (at 11.43 -20.32 0)
        (effects (font (size 1.27 1.27)) (justify left) hide)
      )
      (property "Datasheet" "" (id 3) (at 1.27 -26.67 0)
        (effects (font (size 1.27 1.27)) hide)
      )
      (property "ki_fp_filters" "QFN*4x4mm*Pitch0.5mm*" (id 4) (at 0 0 0)
        (effects (font (size 1.27 1.27)) hide)
      )
      (symbol "CP2102N-A01-GQFN24-silabs-birdchile-rescue_0_1"
        (rectangle (start -11.43 19.05) (end 11.43 -19.05)
          (stroke (width 0.254) (type default) (color 0 0 0 0))
          (fill (type background))
        )
      )
      (symbol "CP2102N-A01-GQFN24-silabs-birdchile-rescue_1_1"
        (pin bidirectional line (at 15.24 15.24 180) (length 3.81)
          (name "RI/CLK" (effects (font (size 1.27 1.27))))
          (number "1" (effects (font (size 1.27 1.27))))
        )
        (pin no_connect line (at 10.16 -22.86 90) (length 3.81) hide
          (name "NC" (effects (font (size 1.27 1.27))))
          (number "10" (effects (font (size 1.27 1.27))))
        )
        (pin bidirectional line (at 15.24 -7.62 180) (length 3.81)
          (name "GPIO.3" (effects (font (size 1.27 1.27))))
          (number "11" (effects (font (size 1.27 1.27))))
        )
        (pin bidirectional line (at 15.24 -10.16 180) (length 3.81)
          (name "GPIO.2" (effects (font (size 1.27 1.27))))
          (number "12" (effects (font (size 1.27 1.27))))
        )
        (pin bidirectional line (at 15.24 -12.7 180) (length 3.81)
          (name "GPIO.1" (effects (font (size 1.27 1.27))))
          (number "13" (effects (font (size 1.27 1.27))))
        )
        (pin bidirectional line (at 15.24 -15.24 180) (length 3.81)
          (name "GPIO.0" (effects (font (size 1.27 1.27))))
          (number "14" (effects (font (size 1.27 1.27))))
        )
        (pin output line (at -15.24 5.08 0) (length 3.81)
          (name "~{SUSPENDb}" (effects (font (size 1.27 1.27))))
          (number "15" (effects (font (size 1.27 1.27))))
        )
        (pin no_connect line (at 7.62 -22.86 90) (length 3.81) hide
          (name "NC" (effects (font (size 1.27 1.27))))
          (number "16" (effects (font (size 1.27 1.27))))
        )
        (pin output line (at -15.24 7.62 0) (length 3.81)
          (name "SUSPEND" (effects (font (size 1.27 1.27))))
          (number "17" (effects (font (size 1.27 1.27))))
        )
        (pin input line (at 15.24 12.7 180) (length 3.81)
          (name "CTS" (effects (font (size 1.27 1.27))))
          (number "18" (effects (font (size 1.27 1.27))))
        )
        (pin output line (at 15.24 10.16 180) (length 3.81)
          (name "RTS" (effects (font (size 1.27 1.27))))
          (number "19" (effects (font (size 1.27 1.27))))
        )
        (pin power_in line (at 2.54 -22.86 90) (length 3.81)
          (name "GND" (effects (font (size 1.27 1.27))))
          (number "2" (effects (font (size 1.27 1.27))))
        )
        (pin input line (at 15.24 7.62 180) (length 3.81)
          (name "RXD" (effects (font (size 1.27 1.27))))
          (number "20" (effects (font (size 1.27 1.27))))
        )
        (pin output line (at 15.24 5.08 180) (length 3.81)
          (name "TXD" (effects (font (size 1.27 1.27))))
          (number "21" (effects (font (size 1.27 1.27))))
        )
        (pin input line (at 15.24 2.54 180) (length 3.81)
          (name "DSR" (effects (font (size 1.27 1.27))))
          (number "22" (effects (font (size 1.27 1.27))))
        )
        (pin output line (at 15.24 0 180) (length 3.81)
          (name "DTR" (effects (font (size 1.27 1.27))))
          (number "23" (effects (font (size 1.27 1.27))))
        )
        (pin input line (at 15.24 -2.54 180) (length 3.81)
          (name "DCD" (effects (font (size 1.27 1.27))))
          (number "24" (effects (font (size 1.27 1.27))))
        )
        (pin power_in line (at 0 -22.86 90) (length 3.81)
          (name "GND" (effects (font (size 1.27 1.27))))
          (number "25" (effects (font (size 1.27 1.27))))
        )
        (pin bidirectional line (at -15.24 -10.16 0) (length 3.81)
          (name "D+" (effects (font (size 1.27 1.27))))
          (number "3" (effects (font (size 1.27 1.27))))
        )
        (pin bidirectional line (at -15.24 -12.7 0) (length 3.81)
          (name "D-" (effects (font (size 1.27 1.27))))
          (number "4" (effects (font (size 1.27 1.27))))
        )
        (pin power_in line (at 0 22.86 270) (length 3.81)
          (name "VIO" (effects (font (size 1.27 1.27))))
          (number "5" (effects (font (size 1.27 1.27))))
        )
        (pin power_in line (at -2.54 22.86 270) (length 3.81)
          (name "VDD" (effects (font (size 1.27 1.27))))
          (number "6" (effects (font (size 1.27 1.27))))
        )
        (pin power_in line (at -15.24 0 0) (length 3.81)
          (name "REGIN" (effects (font (size 1.27 1.27))))
          (number "7" (effects (font (size 1.27 1.27))))
        )
        (pin input line (at -15.24 -7.62 0) (length 3.81)
          (name "VBUS" (effects (font (size 1.27 1.27))))
          (number "8" (effects (font (size 1.27 1.27))))
        )
        (pin input line (at -15.24 15.24 0) (length 3.81)
          (name "~{RSTb}" (effects (font (size 1.27 1.27))))
          (number "9" (effects (font (size 1.27 1.27))))
        )
      )
    )
    (symbol "ProgramadorTelitESP32-rescue:R-device" (pin_numbers hide) (pin_names (offset 0)) (in_bom yes) (on_board yes)
      (property "Reference" "R" (id 0) (at 2.032 0 90)
        (effects (font (size 1.27 1.27)))
      )
      (property "Value" "R-device" (id 1) (at 0 0 90)
        (effects (font (size 1.27 1.27)))
      )
      (property "Footprint" "" (id 2) (at -1.778 0 90)
        (effects (font (size 1.27 1.27)) hide)
      )
      (property "Datasheet" "" (id 3) (at 0 0 0)
        (effects (font (size 1.27 1.27)) hide)
      )
      (property "ki_fp_filters" "R_*" (id 4) (at 0 0 0)
        (effects (font (size 1.27 1.27)) hide)
      )
      (symbol "R-device_0_1"
        (rectangle (start -1.016 -2.54) (end 1.016 2.54)
          (stroke (width 0.254) (type default) (color 0 0 0 0))
          (fill (type none))
        )
      )
      (symbol "R-device_1_1"
        (pin passive line (at 0 3.81 270) (length 1.27)
          (name "~" (effects (font (size 1.27 1.27))))
          (number "1" (effects (font (size 1.27 1.27))))
        )
        (pin passive line (at 0 -3.81 90) (length 1.27)
          (name "~" (effects (font (size 1.27 1.27))))
          (number "2" (effects (font (size 1.27 1.27))))
        )
      )
    )
    (symbol "Regulator_Linear:TLV75515PDBV" (pin_names (offset 0.254)) (in_bom yes) (on_board yes)
      (property "Reference" "U" (id 0) (at -3.81 5.715 0)
        (effects (font (size 1.27 1.27)))
      )
      (property "Value" "TLV75515PDBV" (id 1) (at 0 5.715 0)
        (effects (font (size 1.27 1.27)) (justify left))
      )
      (property "Footprint" "Package_TO_SOT_SMD:SOT-23-5" (id 2) (at 0 8.255 0)
        (effects (font (size 1.27 1.27) italic) hide)
      )
      (property "Datasheet" "http://www.ti.com/lit/ds/symlink/tlv755p.pdf" (id 3) (at 0 1.27 0)
        (effects (font (size 1.27 1.27)) hide)
      )
      (property "ki_keywords" "LDO Regulator Fixed Positive" (id 4) (at 0 0 0)
        (effects (font (size 1.27 1.27)) hide)
      )
      (property "ki_description" "500mA Low Dropout Voltage Regulator, Fixed Output 1.5V, SOT-23-5" (id 5) (at 0 0 0)
        (effects (font (size 1.27 1.27)) hide)
      )
      (property "ki_fp_filters" "SOT?23*" (id 6) (at 0 0 0)
        (effects (font (size 1.27 1.27)) hide)
      )
      (symbol "TLV75515PDBV_0_1"
        (rectangle (start -5.08 4.445) (end 5.08 -5.08)
          (stroke (width 0.254) (type default) (color 0 0 0 0))
          (fill (type background))
        )
      )
      (symbol "TLV75515PDBV_1_1"
        (pin power_in line (at -7.62 2.54 0) (length 2.54)
          (name "IN" (effects (font (size 1.27 1.27))))
          (number "1" (effects (font (size 1.27 1.27))))
        )
        (pin power_in line (at 0 -7.62 90) (length 2.54)
          (name "GND" (effects (font (size 1.27 1.27))))
          (number "2" (effects (font (size 1.27 1.27))))
        )
        (pin input line (at -7.62 0 0) (length 2.54)
          (name "EN" (effects (font (size 1.27 1.27))))
          (number "3" (effects (font (size 1.27 1.27))))
        )
        (pin no_connect line (at 5.08 0 180) (length 2.54) hide
          (name "NC" (effects (font (size 1.27 1.27))))
          (number "4" (effects (font (size 1.27 1.27))))
        )
        (pin power_out line (at 7.62 2.54 180) (length 2.54)
          (name "OUT" (effects (font (size 1.27 1.27))))
          (number "5" (effects (font (size 1.27 1.27))))
        )
      )
    )
    (symbol "Transistor_BJT:BC846BS" (pin_names (offset 0) hide) (in_bom yes) (on_board yes)
      (property "Reference" "Q" (id 0) (at 5.08 1.27 0)
        (effects (font (size 1.27 1.27)) (justify left))
      )
      (property "Value" "BC846BS" (id 1) (at 5.08 -1.27 0)
        (effects (font (size 1.27 1.27)) (justify left))
      )
      (property "Footprint" "Package_TO_SOT_SMD:SOT-363_SC-70-6" (id 2) (at 5.08 2.54 0)
        (effects (font (size 1.27 1.27)) hide)
      )
      (property "Datasheet" "https://assets.nexperia.com/documents/data-sheet/BC846BS.pdf" (id 3) (at 0 0 0)
        (effects (font (size 1.27 1.27)) hide)
      )
      (property "ki_locked" "" (id 4) (at 0 0 0)
        (effects (font (size 1.27 1.27)))
      )
      (property "ki_keywords" "NPN/NPN Transistor" (id 5) (at 0 0 0)
        (effects (font (size 1.27 1.27)) hide)
      )
      (property "ki_description" "100mA IC, 65V Vce, Dual NPN/NPN Transistors, SOT-363" (id 6) (at 0 0 0)
        (effects (font (size 1.27 1.27)) hide)
      )
      (property "ki_fp_filters" "SOT?363*" (id 7) (at 0 0 0)
        (effects (font (size 1.27 1.27)) hide)
      )
      (symbol "BC846BS_0_1"
        (polyline
          (pts
            (xy 0.635 0)
            (xy -2.54 0)
          )
          (stroke (width 0) (type default) (color 0 0 0 0))
          (fill (type none))
        )
        (polyline
          (pts
            (xy 0.635 0.635)
            (xy 2.54 2.54)
          )
          (stroke (width 0) (type default) (color 0 0 0 0))
          (fill (type none))
        )
        (polyline
          (pts
            (xy 0.635 -0.635)
            (xy 2.54 -2.54)
            (xy 2.54 -2.54)
          )
          (stroke (width 0) (type default) (color 0 0 0 0))
          (fill (type none))
        )
        (polyline
          (pts
            (xy 0.635 1.905)
            (xy 0.635 -1.905)
            (xy 0.635 -1.905)
          )
          (stroke (width 0.508) (type default) (color 0 0 0 0))
          (fill (type none))
        )
        (polyline
          (pts
            (xy 1.27 -1.778)
            (xy 1.778 -1.27)
            (xy 2.286 -2.286)
            (xy 1.27 -1.778)
            (xy 1.27 -1.778)
          )
          (stroke (width 0) (type default) (color 0 0 0 0))
          (fill (type outline))
        )
        (circle (center 1.27 0) (radius 2.8194)
          (stroke (width 0.254) (type default) (color 0 0 0 0))
          (fill (type none))
        )
      )
      (symbol "BC846BS_1_1"
        (pin passive line (at 2.54 -5.08 90) (length 2.54)
          (name "E1" (effects (font (size 1.27 1.27))))
          (number "1" (effects (font (size 1.27 1.27))))
        )
        (pin input line (at -5.08 0 0) (length 2.54)
          (name "B1" (effects (font (size 1.27 1.27))))
          (number "2" (effects (font (size 1.27 1.27))))
        )
        (pin passive line (at 2.54 5.08 270) (length 2.54)
          (name "C1" (effects (font (size 1.27 1.27))))
          (number "6" (effects (font (size 1.27 1.27))))
        )
      )
      (symbol "BC846BS_2_1"
        (pin passive line (at 2.54 5.08 270) (length 2.54)
          (name "C2" (effects (font (size 1.27 1.27))))
          (number "3" (effects (font (size 1.27 1.27))))
        )
        (pin passive line (at 2.54 -5.08 90) (length 2.54)
          (name "E2" (effects (font (size 1.27 1.27))))
          (number "4" (effects (font (size 1.27 1.27))))
        )
        (pin input line (at -5.08 0 0) (length 2.54)
          (name "B2" (effects (font (size 1.27 1.27))))
          (number "5" (effects (font (size 1.27 1.27))))
        )
      )
    )
    (symbol "power:GND" (power) (pin_names (offset 0)) (in_bom yes) (on_board yes)
      (property "Reference" "#PWR" (id 0) (at 0 -6.35 0)
        (effects (font (size 1.27 1.27)) hide)
      )
      (property "Value" "GND" (id 1) (at 0 -3.81 0)
        (effects (font (size 1.27 1.27)))
      )
      (property "Footprint" "" (id 2) (at 0 0 0)
        (effects (font (size 1.27 1.27)) hide)
      )
      (property "Datasheet" "" (id 3) (at 0 0 0)
        (effects (font (size 1.27 1.27)) hide)
      )
      (property "ki_keywords" "power-flag" (id 4) (at 0 0 0)
        (effects (font (size 1.27 1.27)) hide)
      )
      (property "ki_description" "Power symbol creates a global label with name \"GND\" , ground" (id 5) (at 0 0 0)
        (effects (font (size 1.27 1.27)) hide)
      )
      (symbol "GND_0_1"
        (polyline
          (pts
            (xy 0 0)
            (xy 0 -1.27)
            (xy 1.27 -1.27)
            (xy 0 -2.54)
            (xy -1.27 -1.27)
            (xy 0 -1.27)
          )
          (stroke (width 0) (type default) (color 0 0 0 0))
          (fill (type none))
        )
      )
      (symbol "GND_1_1"
        (pin power_in line (at 0 0 270) (length 0) hide
          (name "GND" (effects (font (size 1.27 1.27))))
          (number "1" (effects (font (size 1.27 1.27))))
        )
      )
    )
  )

  (junction (at 29.845 116.84) (diameter 0) (color 0 0 0 0)
    (uuid 1bc12881-5b61-4e59-8f3c-12870c018224)
  )
  (junction (at 130.81 91.44) (diameter 0) (color 0 0 0 0)
    (uuid 3b47b150-9d13-415f-a5aa-e67c705042a3)
  )
  (junction (at 128.905 108.585) (diameter 0) (color 0 0 0 0)
    (uuid 74434adc-2f69-43a7-ba58-268d51d28515)
  )
  (junction (at 55.245 116.84) (diameter 0) (color 0 0 0 0)
    (uuid 7da58a34-37c3-40d8-8315-d148180c205b)
  )
  (junction (at 247.015 94.615) (diameter 0) (color 0 0 0 0)
    (uuid 7f1209ad-9f0d-4143-b780-d9319502c321)
  )
  (junction (at 111.76 142.875) (diameter 0) (color 0 0 0 0)
    (uuid 825327ac-4c75-47d8-8245-648cd57192ec)
  )
  (junction (at 40.64 129.54) (diameter 0) (color 0 0 0 0)
    (uuid 8401c493-7b61-4477-a520-d28a456af5bd)
  )
  (junction (at 247.015 151.13) (diameter 0) (color 0 0 0 0)
    (uuid c9b833b8-f561-4a06-956f-10cea60e6458)
  )
  (junction (at 29.845 119.38) (diameter 0) (color 0 0 0 0)
    (uuid ecb4e8de-69fa-4df4-b2e9-225fc8346eca)
  )

  (no_connect (at 262.255 131.445) (uuid 09f36f2d-30a8-4d9b-9ac6-e619eb594641))
  (no_connect (at 262.255 133.985) (uuid 2957d2a1-ab6b-4037-a22c-f81545bd6aba))
  (no_connect (at 231.775 118.745) (uuid 811f3ed5-16e8-4e00-aaca-f93edbe7ac1a))
  (no_connect (at 262.255 121.285) (uuid 9abe65c0-6fb7-431f-965e-2cb6983ff5ec))
  (no_connect (at 262.255 136.525) (uuid a46add62-753b-456e-a282-90ef65be7767))
  (no_connect (at 76.2 175.895) (uuid af17ca9e-288c-4bbd-a350-24e3fc719823))
  (no_connect (at 262.255 126.365) (uuid af2c31e8-0579-4e09-9093-2148432fec72))
  (no_connect (at 231.775 116.205) (uuid bca01722-d5e1-4cf3-95ef-65b2a2a388c1))
  (no_connect (at 99.06 168.275) (uuid be309bd8-6fd6-4688-8901-0a4292a1734f))
  (no_connect (at 262.255 139.065) (uuid cf9811bc-eeec-4fba-86b2-b1834c4c186e))
  (no_connect (at 262.255 111.125) (uuid e881f3f9-2faa-4691-a164-3384410bd376))
  (no_connect (at 262.255 108.585) (uuid ead19a8f-5958-457f-b289-701c7a82c592))
  (no_connect (at 99.06 165.735) (uuid eb2d7fb4-ab3d-49f3-9a1d-10c7d42e01a0))

  (wire (pts (xy 224.79 123.825) (xy 231.775 123.825))
    (stroke (width 0) (type default) (color 0 0 0 0))
    (uuid 03905ff5-df18-48aa-8be8-13440887926d)
  )
  (wire (pts (xy 130.81 91.44) (xy 135.89 91.44))
    (stroke (width 0) (type default) (color 0 0 0 0))
    (uuid 0e1afd4f-a95a-4a6c-bfdc-a22f47504784)
  )
  (wire (pts (xy 229.235 108.585) (xy 231.775 108.585))
    (stroke (width 0) (type default) (color 0 0 0 0))
    (uuid 1444efe3-3c7a-4f60-9ff4-8aa2b60435a0)
  )
  (wire (pts (xy 99.06 150.495) (xy 102.235 150.495))
    (stroke (width 0) (type default) (color 0 0 0 0))
    (uuid 1d414095-000f-4bd8-82be-ef00b2e9905c)
  )
  (wire (pts (xy 48.26 116.84) (xy 55.245 116.84))
    (stroke (width 0) (type default) (color 0 0 0 0))
    (uuid 1daa7b4f-5973-4a60-809f-e25c194e0701)
  )
  (wire (pts (xy 99.06 155.575) (xy 102.235 155.575))
    (stroke (width 0) (type default) (color 0 0 0 0))
    (uuid 213bdbbb-2aff-4f48-bf18-936e5ebbcb5d)
  )
  (wire (pts (xy 179.705 84.455) (xy 182.245 84.455))
    (stroke (width 0) (type default) (color 0 0 0 0))
    (uuid 22042404-c582-4c81-af8b-9d0fcff1a3a5)
  )
  (wire (pts (xy 249.555 146.685) (xy 249.555 151.13))
    (stroke (width 0) (type default) (color 0 0 0 0))
    (uuid 2217ce2a-8216-4e5d-97a1-7e874822f600)
  )
  (wire (pts (xy 244.475 100.965) (xy 244.475 94.615))
    (stroke (width 0) (type default) (color 0 0 0 0))
    (uuid 22cee8af-30fa-4490-9daa-48dc7b75c8e2)
  )
  (wire (pts (xy 226.06 133.985) (xy 231.775 133.985))
    (stroke (width 0) (type default) (color 0 0 0 0))
    (uuid 285326ec-1e03-4896-a46e-797174b0c7c3)
  )
  (wire (pts (xy 99.06 142.875) (xy 102.235 142.875))
    (stroke (width 0) (type default) (color 0 0 0 0))
    (uuid 2c6f1581-0a5b-4aa9-ac01-a3c6523bd285)
  )
  (wire (pts (xy 106.68 119.38) (xy 106.68 113.665))
    (stroke (width 0) (type default) (color 0 0 0 0))
    (uuid 2d6a1908-930d-44c9-ba86-1463a3f787dc)
  )
  (wire (pts (xy 247.015 151.13) (xy 247.015 152.4))
    (stroke (width 0) (type default) (color 0 0 0 0))
    (uuid 3158e545-496c-4d68-b1c3-2133a4431358)
  )
  (wire (pts (xy 83.82 175.895) (xy 83.82 177.165))
    (stroke (width 0) (type default) (color 0 0 0 0))
    (uuid 34357817-b517-4005-94fd-0b60657f682f)
  )
  (wire (pts (xy 101.6 137.795) (xy 99.06 137.795))
    (stroke (width 0) (type default) (color 0 0 0 0))
    (uuid 36be91a6-8044-4ebf-9721-6a55c507003b)
  )
  (wire (pts (xy 128.905 108.585) (xy 136.525 108.585))
    (stroke (width 0) (type default) (color 0 0 0 0))
    (uuid 3f08e14b-9e27-45cc-87d5-51b7b501cc09)
  )
  (wire (pts (xy 33.02 119.38) (xy 29.845 119.38))
    (stroke (width 0) (type default) (color 0 0 0 0))
    (uuid 3fa0a959-f712-4a95-8361-fa119e02f2ea)
  )
  (wire (pts (xy 253.365 94.615) (xy 253.365 89.535))
    (stroke (width 0) (type default) (color 0 0 0 0))
    (uuid 3fdd2be4-330d-4ca4-b359-e709d31dfe9a)
  )
  (wire (pts (xy 109.855 145.415) (xy 111.76 145.415))
    (stroke (width 0) (type default) (color 0 0 0 0))
    (uuid 407c5125-58ec-4e5a-ba5a-25a50053ec0d)
  )
  (wire (pts (xy 114.3 108.585) (xy 117.475 108.585))
    (stroke (width 0) (type default) (color 0 0 0 0))
    (uuid 40aef6d2-bb20-4c8f-a139-8bdded259c01)
  )
  (wire (pts (xy 247.015 94.615) (xy 247.015 100.965))
    (stroke (width 0) (type default) (color 0 0 0 0))
    (uuid 4a584580-38cd-4576-b900-4a248ede11ed)
  )
  (wire (pts (xy 61.595 125.095) (xy 61.595 120.65))
    (stroke (width 0) (type default) (color 0 0 0 0))
    (uuid 4b11d2da-3e9e-4c0c-8422-e37bc14e9928)
  )
  (wire (pts (xy 40.64 129.54) (xy 55.245 129.54))
    (stroke (width 0) (type default) (color 0 0 0 0))
    (uuid 4bd47402-64e1-49a4-af2d-867ab568af10)
  )
  (wire (pts (xy 224.79 131.445) (xy 231.775 131.445))
    (stroke (width 0) (type default) (color 0 0 0 0))
    (uuid 51ee4514-855a-4ab8-9219-010b97cd0cb9)
  )
  (wire (pts (xy 102.235 153.035) (xy 99.06 153.035))
    (stroke (width 0) (type default) (color 0 0 0 0))
    (uuid 5222611c-33ad-469a-9e47-93f7ea8a4a4f)
  )
  (wire (pts (xy 40.64 131.445) (xy 40.64 129.54))
    (stroke (width 0) (type default) (color 0 0 0 0))
    (uuid 540cc4c7-5cec-466b-a54b-4c66268bcc93)
  )
  (wire (pts (xy 179.705 86.995) (xy 182.245 86.995))
    (stroke (width 0) (type default) (color 0 0 0 0))
    (uuid 561be14d-d84c-418b-894f-d769d053f4ab)
  )
  (wire (pts (xy 99.06 145.415) (xy 102.235 145.415))
    (stroke (width 0) (type default) (color 0 0 0 0))
    (uuid 580e31ce-3510-4b70-825a-5bd5888a6eed)
  )
  (wire (pts (xy 217.17 108.585) (xy 217.17 104.775))
    (stroke (width 0) (type default) (color 0 0 0 0))
    (uuid 5f3c8b46-7fd1-4500-8b13-9b146a240913)
  )
  (wire (pts (xy 179.705 81.915) (xy 182.245 81.915))
    (stroke (width 0) (type default) (color 0 0 0 0))
    (uuid 605a4976-c0a1-4aa7-86e7-c2ac719f4278)
  )
  (wire (pts (xy 226.06 136.525) (xy 231.775 136.525))
    (stroke (width 0) (type default) (color 0 0 0 0))
    (uuid 6223dada-3dd2-41a8-aee6-71f48f39ddbb)
  )
  (wire (pts (xy 35.56 159.385) (xy 40.64 159.385))
    (stroke (width 0) (type default) (color 0 0 0 0))
    (uuid 64e805d8-f774-4103-95dc-9d7211031c60)
  )
  (wire (pts (xy 106.68 99.06) (xy 128.905 99.06))
    (stroke (width 0) (type default) (color 0 0 0 0))
    (uuid 66a0f03c-de16-40a5-a025-840948f31002)
  )
  (wire (pts (xy 179.705 89.535) (xy 182.245 89.535))
    (stroke (width 0) (type default) (color 0 0 0 0))
    (uuid 6f39c6d5-e7fb-4ee3-bc77-139c595c26b2)
  )
  (wire (pts (xy 114.3 91.44) (xy 118.11 91.44))
    (stroke (width 0) (type default) (color 0 0 0 0))
    (uuid 74529c39-b8c8-4775-88c5-bf1210f74e64)
  )
  (wire (pts (xy 29.845 127) (xy 29.845 129.54))
    (stroke (width 0) (type default) (color 0 0 0 0))
    (uuid 77f225a6-84b5-4731-8d69-b569888ed7e8)
  )
  (wire (pts (xy 247.015 94.615) (xy 253.365 94.615))
    (stroke (width 0) (type default) (color 0 0 0 0))
    (uuid 79ebd38d-8671-4a0f-8c69-f8aae9ea9a77)
  )
  (wire (pts (xy 111.76 145.415) (xy 111.76 142.875))
    (stroke (width 0) (type default) (color 0 0 0 0))
    (uuid 84e10ebe-795a-49e9-bb43-5e09dc784a67)
  )
  (wire (pts (xy 55.245 129.54) (xy 55.245 127))
    (stroke (width 0) (type default) (color 0 0 0 0))
    (uuid 87f87be5-7a03-4a47-af84-8983d618c8de)
  )
  (wire (pts (xy 221.615 108.585) (xy 217.17 108.585))
    (stroke (width 0) (type default) (color 0 0 0 0))
    (uuid 896d0e80-eca1-4e8b-9ba3-e9ebcbd32370)
  )
  (wire (pts (xy 102.235 158.115) (xy 99.06 158.115))
    (stroke (width 0) (type default) (color 0 0 0 0))
    (uuid 8d184cc2-cd24-446e-8413-e7d65d7f2671)
  )
  (wire (pts (xy 111.76 142.875) (xy 113.665 142.875))
    (stroke (width 0) (type default) (color 0 0 0 0))
    (uuid 8de83d44-c65a-4252-8004-35a1e5d32cb9)
  )
  (wire (pts (xy 262.255 113.665) (xy 273.685 113.665))
    (stroke (width 0) (type default) (color 0 0 0 0))
    (uuid 8e879751-2b16-4cef-bc0d-3a9ddbc857ec)
  )
  (wire (pts (xy 29.845 129.54) (xy 40.64 129.54))
    (stroke (width 0) (type default) (color 0 0 0 0))
    (uuid 99b7cb1d-d0d9-415c-9b34-b19e737b07ad)
  )
  (wire (pts (xy 106.68 96.52) (xy 106.68 99.06))
    (stroke (width 0) (type default) (color 0 0 0 0))
    (uuid 9df48dbc-1a3f-4878-a7a1-ef2c38001630)
  )
  (wire (pts (xy 253.365 89.535) (xy 254.635 89.535))
    (stroke (width 0) (type default) (color 0 0 0 0))
    (uuid 9eb8478f-10cf-4419-ba97-7cfe16c3f734)
  )
  (wire (pts (xy 102.235 150.495) (xy 102.235 153.035))
    (stroke (width 0) (type default) (color 0 0 0 0))
    (uuid a0a64c0f-02e6-4e45-abb3-0790b58b240d)
  )
  (wire (pts (xy 109.855 142.875) (xy 111.76 142.875))
    (stroke (width 0) (type default) (color 0 0 0 0))
    (uuid a37d0d59-a8f4-4789-9df3-eabc79479dc7)
  )
  (wire (pts (xy 130.81 91.44) (xy 125.73 91.44))
    (stroke (width 0) (type default) (color 0 0 0 0))
    (uuid a46948a9-f6c6-412c-905c-0211e0b49f19)
  )
  (wire (pts (xy 244.475 94.615) (xy 247.015 94.615))
    (stroke (width 0) (type default) (color 0 0 0 0))
    (uuid b3041a10-71a4-4095-a5e1-a20da90297b2)
  )
  (wire (pts (xy 29.845 116.84) (xy 33.02 116.84))
    (stroke (width 0) (type default) (color 0 0 0 0))
    (uuid b3701ac3-1c2d-48c1-a5cd-5c0e57fe0c41)
  )
  (wire (pts (xy 55.245 116.84) (xy 55.245 119.38))
    (stroke (width 0) (type default) (color 0 0 0 0))
    (uuid b70bd1fc-e34e-41a8-a574-d6faa87a3904)
  )
  (wire (pts (xy 17.145 116.84) (xy 29.845 116.84))
    (stroke (width 0) (type default) (color 0 0 0 0))
    (uuid bb01dc6b-c560-4ca6-917d-36307b0ae36d)
  )
  (wire (pts (xy 249.555 151.13) (xy 247.015 151.13))
    (stroke (width 0) (type default) (color 0 0 0 0))
    (uuid bdf6f613-980e-4508-8881-6ea9beb330a4)
  )
  (wire (pts (xy 128.905 108.585) (xy 125.095 108.585))
    (stroke (width 0) (type default) (color 0 0 0 0))
    (uuid be2de6ad-76eb-448d-a8bf-c0a599d7695a)
  )
  (wire (pts (xy 106.68 86.36) (xy 106.68 81.28))
    (stroke (width 0) (type default) (color 0 0 0 0))
    (uuid bf410a73-6b65-40c5-ab40-a4c12ff2c118)
  )
  (wire (pts (xy 273.685 123.825) (xy 262.255 123.825))
    (stroke (width 0) (type default) (color 0 0 0 0))
    (uuid c1d2b732-0798-431a-8eb2-0ad5dbe47e2b)
  )
  (wire (pts (xy 106.68 101.6) (xy 130.81 101.6))
    (stroke (width 0) (type default) (color 0 0 0 0))
    (uuid cded8077-0aeb-406c-a2e5-01821addfccf)
  )
  (wire (pts (xy 247.015 146.685) (xy 247.015 151.13))
    (stroke (width 0) (type default) (color 0 0 0 0))
    (uuid cdf301ef-3964-478d-be2a-ef4a338584be)
  )
  (wire (pts (xy 130.81 101.6) (xy 130.81 91.44))
    (stroke (width 0) (type default) (color 0 0 0 0))
    (uuid ce93b7d4-8038-415d-9edf-7b8ddf4804f5)
  )
  (wire (pts (xy 262.255 89.535) (xy 264.795 89.535))
    (stroke (width 0) (type default) (color 0 0 0 0))
    (uuid d15c9497-c878-40d3-8099-276bb3f77ce0)
  )
  (wire (pts (xy 40.64 129.54) (xy 40.64 127))
    (stroke (width 0) (type default) (color 0 0 0 0))
    (uuid d3a972c9-d90a-47c4-9821-d220e7b5e3bf)
  )
  (wire (pts (xy 179.705 92.075) (xy 182.245 92.075))
    (stroke (width 0) (type default) (color 0 0 0 0))
    (uuid d491e79f-9780-4662-9daf-f546943732f7)
  )
  (wire (pts (xy 69.85 116.84) (xy 67.945 116.84))
    (stroke (width 0) (type default) (color 0 0 0 0))
    (uuid de5a2861-d0e3-498e-8cad-067889035d95)
  )
  (wire (pts (xy 262.255 118.745) (xy 273.685 118.745))
    (stroke (width 0) (type default) (color 0 0 0 0))
    (uuid e1556798-9f56-4fd6-b2e4-b39d4ee47312)
  )
  (wire (pts (xy 102.235 155.575) (xy 102.235 158.115))
    (stroke (width 0) (type default) (color 0 0 0 0))
    (uuid e2118a8b-ce6f-4b1c-a6fb-22838068a138)
  )
  (wire (pts (xy 29.845 119.38) (xy 29.845 116.84))
    (stroke (width 0) (type default) (color 0 0 0 0))
    (uuid e874c33e-4644-4b4b-9372-055abdd842be)
  )
  (wire (pts (xy 128.905 99.06) (xy 128.905 108.585))
    (stroke (width 0) (type default) (color 0 0 0 0))
    (uuid eae90ec1-ed12-4b1e-8ed4-822c258078e9)
  )
  (wire (pts (xy 40.64 159.385) (xy 40.64 160.02))
    (stroke (width 0) (type default) (color 0 0 0 0))
    (uuid ed24ed9e-f253-43fe-9755-82d9221cc43b)
  )
  (wire (pts (xy 179.705 94.615) (xy 182.245 94.615))
    (stroke (width 0) (type default) (color 0 0 0 0))
    (uuid f0daa0e6-3b9b-4cb2-a856-2561d1f76ae4)
  )
  (wire (pts (xy 106.68 103.505) (xy 106.68 101.6))
    (stroke (width 0) (type default) (color 0 0 0 0))
    (uuid f9e3490e-a659-4756-8d28-b93b3f6b919d)
  )
  (wire (pts (xy 262.255 116.205) (xy 273.685 116.205))
    (stroke (width 0) (type default) (color 0 0 0 0))
    (uuid fe89fa3d-583b-4e66-8995-402b3a63baad)
  )

  (label "RTS" (at 273.685 113.665 0)
    (effects (font (size 1.524 1.524)) (justify left bottom))
    (uuid 0539c558-7367-4321-9d72-be7036e402c1)
  )
  (label "VBUS" (at 17.145 116.84 0)
    (effects (font (size 1.524 1.524)) (justify left bottom))
    (uuid 0796cfd2-0da1-43f6-a95f-51770e1d88a7)
  )
  (label "D-" (at 102.235 153.035 0)
    (effects (font (size 1.524 1.524)) (justify left bottom))
    (uuid 13886cbb-ef96-4408-b70f-e18bc2b92c73)
  )
  (label "CHIP_PU" (at 106.68 81.28 0)
    (effects (font (size 1.524 1.524)) (justify left bottom))
    (uuid 1c5d43aa-ea0a-47cb-b80b-510887119f9e)
  )
  (label "RXD" (at 273.685 116.205 0)
    (effects (font (size 1.524 1.524)) (justify left bottom))
    (uuid 1f9398dd-7cdd-424c-b613-8ca2f01076a8)
  )
  (label "CHIP_PU" (at 179.705 89.535 180)
    (effects (font (size 1.524 1.524)) (justify right bottom))
    (uuid 26af3975-a636-45c1-8b88-2ae79f76cdc4)
  )
  (label "DTR" (at 135.89 91.44 0)
    (effects (font (size 1.524 1.524)) (justify left bottom))
    (uuid 30b99404-c3c1-43c4-8022-bea1fd965906)
  )
  (label "VOUT" (at 61.595 125.095 0)
    (effects (font (size 1.524 1.524)) (justify left bottom))
    (uuid 3b385c31-7a13-4843-9cb2-d1b1a5bf9181)
  )
  (label "VOUT" (at 179.705 81.915 180)
    (effects (font (size 1.524 1.524)) (justify right bottom))
    (uuid 3ed0ecda-222e-4656-988c-7d47d8358a88)
  )
  (label "VBUS" (at 224.79 123.825 0)
    (effects (font (size 1.524 1.524)) (justify left bottom))
    (uuid 43f7bfa1-63f0-4188-9aeb-179fd0f01620)
  )
  (label "D-" (at 226.06 136.525 0)
    (effects (font (size 1.524 1.524)) (justify left bottom))
    (uuid 45a4619d-ae80-47dd-91fb-a73293d1128c)
  )
  (label "VBUS" (at 224.79 131.445 0)
    (effects (font (size 1.524 1.524)) (justify left bottom))
    (uuid 481aa697-d87a-44a6-ace7-2ac4561cf197)
  )
  (label "VBUS" (at 101.6 137.795 0)
    (effects (font (size 1.524 1.524)) (justify left bottom))
    (uuid 4e5a5802-4d89-4ae0-973f-a235b0b7db62)
  )
  (label "TXD" (at 273.685 118.745 0)
    (effects (font (size 1.524 1.524)) (justify left bottom))
    (uuid 52af98b2-86da-4b87-b703-7faba4349c2b)
  )
  (label "D+" (at 102.235 158.115 0)
    (effects (font (size 1.524 1.524)) (justify left bottom))
    (uuid 89912530-39e4-4f5e-9138-abb7e03ebbbd)
  )
  (label "TXD" (at 179.705 86.995 180)
    (effects (font (size 1.524 1.524)) (justify right bottom))
    (uuid 8c6a4aa8-0d8c-413b-a8b7-107149bcf978)
  )
  (label "VIO" (at 247.015 94.615 0)
    (effects (font (size 1.524 1.524)) (justify left bottom))
    (uuid aa842af4-b203-470b-94ca-076abaeb6ae2)
  )
  (label "D+" (at 226.06 133.985 0)
    (effects (font (size 1.524 1.524)) (justify left bottom))
    (uuid b60503d0-fd39-4ca5-a75c-73f752ee1e77)
  )
  (label "DTR" (at 273.685 123.825 0)
    (effects (font (size 1.524 1.524)) (justify left bottom))
    (uuid b97b32f6-99cd-4591-afe8-62a599d9cf89)
  )
  (label "RXD" (at 179.705 84.455 180)
    (effects (font (size 1.524 1.524)) (justify right bottom))
    (uuid c8d7f8c9-f0cb-4f87-b566-cad30266a5b5)
  )
  (label "3V3" (at 51.435 116.84 0)
    (effects (font (size 1.27 1.27)) (justify left bottom))
    (uuid ceb7810a-9ae9-45a2-b1e0-504c8df4f2bd)
  )
  (label "GPIO0" (at 106.68 119.38 0)
    (effects (font (size 1.524 1.524)) (justify left bottom))
    (uuid e087e25a-ac1a-476d-8d3e-61fee90c75ad)
  )
  (label "GPIO0" (at 179.705 92.075 180)
    (effects (font (size 1.524 1.524)) (justify right bottom))
    (uuid eb3ccc11-714d-4a30-9d3f-523ef033f673)
  )
  (label "VIO" (at 217.17 104.775 0)
    (effects (font (size 1.524 1.524)) (justify left bottom))
    (uuid ec64621c-de84-446f-ba53-e4e2b9efb725)
  )
  (label "VDD" (at 244.475 94.615 180)
    (effects (font (size 1.524 1.524)) (justify right bottom))
    (uuid f26c5825-8bd7-4c4b-8dce-4381911ece00)
  )
  (label "GND" (at 179.705 94.615 180)
    (effects (font (size 1.27 1.27)) (justify right bottom))
    (uuid f41150fe-b3ab-4fcd-8caa-6d4faf6441ba)
  )
  (label "VBUS" (at 69.85 116.84 0)
    (effects (font (size 1.524 1.524)) (justify left bottom))
    (uuid f42ffa4a-3162-4d30-992d-a7e13dd34485)
  )
  (label "RTS" (at 136.525 108.585 0)
    (effects (font (size 1.524 1.524)) (justify left bottom))
    (uuid febc27c1-62b5-40e2-846a-e888c69e1b10)
  )

  (global_label "GND" (shape input) (at 35.56 159.385 180) (fields_autoplaced)
    (effects (font (size 1.524 1.524)) (justify right))
    (uuid 57bb0dac-be7a-4db1-b781-ba1ea8ccbd8b)
    (property "Intersheet References" "${INTERSHEET_REFS}" (id 0) (at 0 0 0)
      (effects (font (size 1.27 1.27)) hide)
    )
  )

  (symbol (lib_id "ProgramadorTelitESP32-rescue:R-device") (at 121.285 108.585 270) (unit 1)
    (in_bom yes) (on_board yes)
    (uuid 00000000-0000-0000-0000-00005d1b96cd)
    (property "Reference" "R3" (id 0) (at 121.285 103.3272 90))
    (property "Value" "" (id 1) (at 121.285 105.6386 90))
    (property "Footprint" "" (id 2) (at 121.285 106.807 90)
      (effects (font (size 1.27 1.27)) hide)
    )
    (property "Datasheet" "" (id 3) (at 121.285 108.585 0)
      (effects (font (size 1.27 1.27)) hide)
    )
    (property "MPN" "CR0603-JW-103ELF" (id 4) (at 121.285 108.585 90)
      (effects (font (size 1.524 1.524)) hide)
    )
    (pin "1" (uuid 52faaf0a-32c9-4779-87ee-ab7d6dfca769))
    (pin "2" (uuid 2c757599-485b-4c00-90fd-b9984ef322e4))
  )

  (symbol (lib_id "Connector:USB_C_Receptacle_USB2.0") (at 83.82 153.035 0) (unit 1)
    (in_bom yes) (on_board yes)
    (uuid 00000000-0000-0000-0000-00005d1bd1b7)
    (property "Reference" "J1" (id 0) (at 86.5378 128.7272 0))
    (property "Value" "" (id 1) (at 86.5378 131.0386 0))
    (property "Footprint" "" (id 2) (at 86.5378 133.35 0))
    (property "Datasheet" "" (id 3) (at 87.63 153.035 0)
      (effects (font (size 1.27 1.27)) hide)
    )
    (property "MPN" "CX90M-16P" (id 4) (at 83.82 153.035 0)
      (effects (font (size 1.27 1.27)) hide)
    )
    (pin "A1" (uuid dab0e2fd-b4f6-44ed-aad2-17c4e2b96060))
    (pin "A12" (uuid a25deb32-3449-4006-a393-2cb46cdbaae2))
    (pin "A4" (uuid a8d4a082-c265-4705-a68c-48b3daf3a40e))
    (pin "A5" (uuid 09074b74-707f-4fd6-aad1-c707abaec103))
    (pin "A6" (uuid 689ebfd4-4b93-432c-a43c-d8a0f55db5d9))
    (pin "A7" (uuid 3be22d1f-edeb-456c-b478-7855cf166c22))
    (pin "A8" (uuid 327ec337-ac7a-486c-85c8-123d31cb092a))
    (pin "A9" (uuid 91f9b895-0acc-49c6-9d1a-9c9683d210c3))
    (pin "B1" (uuid 37e76c44-f831-458a-b9ec-14764dbb582c))
    (pin "B12" (uuid 8b739d59-f88d-4efb-86fa-47e563b09a81))
    (pin "B4" (uuid bc880642-1ddf-43b4-b040-09f38f971a33))
    (pin "B5" (uuid 28d5689c-c25c-4768-a622-ea314098553c))
    (pin "B6" (uuid 2609107f-7351-46d6-94b6-871ef49beff7))
    (pin "B7" (uuid 1d54ea8b-5e19-436d-98af-2e09a0408b52))
    (pin "B8" (uuid 9db0a90a-a5ea-4377-9d0b-cdab72ddb619))
    (pin "B9" (uuid 6d2677b2-ed10-49cf-8eb0-81abe95b1cba))
    (pin "S1" (uuid 7796169d-2ad7-4251-a94c-c9ab75bbc1a4))
  )

  (symbol (lib_id "Regulator_Linear:TLV75515PDBV") (at 40.64 119.38 0) (unit 1)
    (in_bom yes) (on_board yes)
    (uuid 00000000-0000-0000-0000-00005d1d0347)
    (property "Reference" "U1" (id 0) (at 40.64 110.6932 0))
    (property "Value" "" (id 1) (at 40.64 113.0046 0))
    (property "Footprint" "" (id 2) (at 40.64 111.76 0)
      (effects (font (size 1.27 1.27) italic) hide)
    )
    (property "Datasheet" "" (id 3) (at 40.64 119.38 0)
      (effects (font (size 1.27 1.27)) hide)
    )
    (property "MPN" "MIC5225-3.3YM5" (id 4) (at 40.64 119.38 0)
      (effects (font (size 1.27 1.27)) hide)
    )
    (pin "1" (uuid 55afd272-3d2c-483a-857c-0a10b5bc91e2))
    (pin "2" (uuid d484f7d0-bb31-480f-8f8e-a5d07db87560))
    (pin "3" (uuid 19201914-29cd-40d7-8b7d-cd521a4cca31))
    (pin "4" (uuid fdbc4bcb-85ea-4846-8ca8-e4ec5ffeb6eb))
    (pin "5" (uuid 65291eae-2c48-46ed-bcf3-51f70063c41c))
  )

  (symbol (lib_id "ProgramadorTelitESP32-rescue:C-device") (at 29.845 123.19 180) (unit 1)
    (in_bom yes) (on_board yes)
    (uuid 00000000-0000-0000-0000-00005d1d292c)
    (property "Reference" "C1" (id 0) (at 26.924 124.3584 0)
      (effects (font (size 1.27 1.27)) (justify left))
    )
    (property "Value" "" (id 1) (at 26.924 122.047 0)
      (effects (font (size 1.27 1.27)) (justify left))
    )
    (property "Footprint" "" (id 2) (at 28.8798 119.38 0)
      (effects (font (size 1.27 1.27)) hide)
    )
    (property "Datasheet" "~" (id 3) (at 29.845 123.19 0)
      (effects (font (size 1.27 1.27)) hide)
    )
    (property "MPN" "LMK107B7105KA-T" (id 4) (at 29.845 123.19 0)
      (effects (font (size 1.27 1.27)) hide)
    )
    (pin "1" (uuid a9fab31e-84cd-4bdc-98da-ec32830c608e))
    (pin "2" (uuid d153cf8f-3cfc-4866-8bb5-6e189efc6334))
  )

  (symbol (lib_id "ProgramadorTelitESP32-rescue:C-device") (at 55.245 123.19 180) (unit 1)
    (in_bom yes) (on_board yes)
    (uuid 00000000-0000-0000-0000-00005d1d8492)
    (property "Reference" "C2" (id 0) (at 52.324 124.3584 0)
      (effects (font (size 1.27 1.27)) (justify left))
    )
    (property "Value" "" (id 1) (at 52.324 122.047 0)
      (effects (font (size 1.27 1.27)) (justify left))
    )
    (property "Footprint" "" (id 2) (at 54.2798 119.38 0)
      (effects (font (size 1.27 1.27)) hide)
    )
    (property "Datasheet" "~" (id 3) (at 55.245 123.19 0)
      (effects (font (size 1.27 1.27)) hide)
    )
    (property "MPN" "CL10A225KQ8NNNC" (id 4) (at 55.245 123.19 0)
      (effects (font (size 1.27 1.27)) hide)
    )
    (pin "1" (uuid c4205836-eff2-46d6-b108-1f9b8c1de0f7))
    (pin "2" (uuid 38908880-dacf-469d-843a-1aa389d299dd))
  )

  (symbol (lib_id "power:GND") (at 40.64 131.445 0) (unit 1)
    (in_bom yes) (on_board yes)
    (uuid 00000000-0000-0000-0000-00005d1dce27)
    (property "Reference" "#PWR0105" (id 0) (at 40.64 137.795 0)
      (effects (font (size 1.27 1.27)) hide)
    )
    (property "Value" "" (id 1) (at 40.767 134.6962 90)
      (effects (font (size 1.27 1.27)) (justify right))
    )
    (property "Footprint" "" (id 2) (at 40.64 131.445 0)
      (effects (font (size 1.27 1.27)) hide)
    )
    (property "Datasheet" "" (id 3) (at 40.64 131.445 0)
      (effects (font (size 1.27 1.27)) hide)
    )
    (pin "1" (uuid 01f5edb9-b262-4567-aefb-a3c14f87af29))
  )

  (symbol (lib_id "Transistor_BJT:BC846BS") (at 109.22 91.44 0) (mirror y) (unit 1)
    (in_bom yes) (on_board yes)
    (uuid 00000000-0000-0000-0000-00005d1e16eb)
    (property "Reference" "Q1" (id 0) (at 104.3686 90.2716 0)
      (effects (font (size 1.27 1.27)) (justify left))
    )
    (property "Value" "" (id 1) (at 104.3686 92.583 0)
      (effects (font (size 1.27 1.27)) (justify left))
    )
    (property "Footprint" "" (id 2) (at 104.14 88.9 0)
      (effects (font (size 1.27 1.27)) hide)
    )
    (property "Datasheet" "https://assets.nexperia.com/documents/data-sheet/BC846BS.pdf" (id 3) (at 109.22 91.44 0)
      (effects (font (size 1.27 1.27)) hide)
    )
    (property "MPN" "MBT3904DW1T1G" (id 4) (at 109.22 91.44 0)
      (effects (font (size 1.27 1.27)) hide)
    )
    (pin "1" (uuid c905ea97-67a1-44a9-ad22-d979402d97e3))
    (pin "2" (uuid eb1a92a9-4f4c-4b4c-9a9e-1ba8ff4b6598))
    (pin "6" (uuid ee4356a9-3e86-49d6-a4aa-962597fa8edc))
    (pin "3" (uuid ac0d6d5e-abb1-4ccc-a1b2-2127532cf6ec))
    (pin "4" (uuid 225f1211-3753-4921-ab53-aad75394cc75))
    (pin "5" (uuid 80095053-99cb-4c3f-9518-9dcea2e35138))
  )

  (symbol (lib_id "Transistor_BJT:BC846BS") (at 109.22 108.585 180) (unit 2)
    (in_bom yes) (on_board yes)
    (uuid 00000000-0000-0000-0000-00005d1e1e3f)
    (property "Reference" "Q1" (id 0) (at 104.3686 107.4166 0)
      (effects (font (size 1.27 1.27)) (justify left))
    )
    (property "Value" "" (id 1) (at 104.3686 109.728 0)
      (effects (font (size 1.27 1.27)) (justify left))
    )
    (property "Footprint" "" (id 2) (at 104.14 111.125 0)
      (effects (font (size 1.27 1.27)) hide)
    )
    (property "Datasheet" "https://assets.nexperia.com/documents/data-sheet/BC846BS.pdf" (id 3) (at 109.22 108.585 0)
      (effects (font (size 1.27 1.27)) hide)
    )
    (property "MPN" "MBT3904DW1T1G" (id 4) (at 109.22 108.585 0)
      (effects (font (size 1.27 1.27)) hide)
    )
    (pin "1" (uuid efc86a73-5d0b-413c-b755-5ece547a6e05))
    (pin "2" (uuid 99603f10-b974-41e5-92ba-917200586878))
    (pin "6" (uuid 5d9ab156-1086-4621-91c5-fe41fc06125d))
    (pin "3" (uuid 31ba8ff9-0422-45e3-b2ac-f41d0728254b))
    (pin "4" (uuid 49a395b1-7df9-4bd2-b445-25d36811d96f))
    (pin "5" (uuid 81b68914-ca11-4518-bd35-3485616ce6ce))
  )

  (symbol (lib_id "Jumper:Jumper_3_Open") (at 61.595 116.84 0) (unit 1)
    (in_bom yes) (on_board yes)
    (uuid 00000000-0000-0000-0000-00005d1e9712)
    (property "Reference" "JP1" (id 0) (at 61.595 111.1504 0))
    (property "Value" "" (id 1) (at 61.595 113.4618 0))
    (property "Footprint" "" (id 2) (at 61.595 116.84 0)
      (effects (font (size 1.27 1.27)) hide)
    )
    (property "Datasheet" "~" (id 3) (at 61.595 116.84 0)
      (effects (font (size 1.27 1.27)) hide)
    )
    (pin "1" (uuid e21d28be-d341-412a-96c4-e9d855adcb6b))
    (pin "2" (uuid 59ff31eb-8438-438f-ac6d-94786a0e4a18))
    (pin "3" (uuid 7a7fe6c6-7d66-437b-8052-96c7c9844d0c))
  )

  (symbol (lib_id "ProgramadorTelitESP32-rescue:R-device") (at 225.425 108.585 270) (unit 1)
    (in_bom yes) (on_board yes)
    (uuid 00000000-0000-0000-0000-00005d1ec19d)
    (property "Reference" "R5" (id 0) (at 225.425 103.3272 90))
    (property "Value" "" (id 1) (at 225.425 105.6386 90))
    (property "Footprint" "" (id 2) (at 225.425 106.807 90)
      (effects (font (size 1.27 1.27)) hide)
    )
    (property "Datasheet" "" (id 3) (at 225.425 108.585 0)
      (effects (font (size 1.27 1.27)) hide)
    )
    (property "MPN" "CR0603-JW-102ELF" (id 4) (at 225.425 108.585 90)
      (effects (font (size 1.524 1.524)) hide)
    )
    (pin "1" (uuid 6d341081-e485-4fd1-933c-ec15fba8c3bc))
    (pin "2" (uuid c9390790-8d5a-4d7a-a3c6-ddf63c16c17e))
  )

  (symbol (lib_id "power:GND") (at 247.015 152.4 0) (unit 1)
    (in_bom yes) (on_board yes)
    (uuid 00000000-0000-0000-0000-00005d1f2ab7)
    (property "Reference" "#PWR0101" (id 0) (at 247.015 158.75 0)
      (effects (font (size 1.27 1.27)) hide)
    )
    (property "Value" "" (id 1) (at 247.142 156.7942 0))
    (property "Footprint" "" (id 2) (at 247.015 152.4 0)
      (effects (font (size 1.27 1.27)) hide)
    )
    (property "Datasheet" "" (id 3) (at 247.015 152.4 0)
      (effects (font (size 1.27 1.27)) hide)
    )
    (pin "1" (uuid 41903cc6-1bcc-46df-86fa-a926cb3d2c65))
  )

  (symbol (lib_id "ProgramadorTelitESP32-rescue:R-device") (at 106.045 142.875 270) (unit 1)
    (in_bom yes) (on_board yes)
    (uuid 00000000-0000-0000-0000-00005d1f7ce9)
    (property "Reference" "R1" (id 0) (at 106.045 137.6172 90))
    (property "Value" "" (id 1) (at 106.045 139.9286 90))
    (property "Footprint" "" (id 2) (at 106.045 141.097 90)
      (effects (font (size 1.27 1.27)) hide)
    )
    (property "Datasheet" "" (id 3) (at 106.045 142.875 0)
      (effects (font (size 1.27 1.27)) hide)
    )
    (property "MPN" "CR0603-JW-512ELF" (id 4) (at 106.045 142.875 90)
      (effects (font (size 1.524 1.524)) hide)
    )
    (pin "1" (uuid 879d7aa3-8757-4fdc-94c0-a88d8c5d3cda))
    (pin "2" (uuid 1fef2fed-71d4-439b-9efd-a42fab5a45ba))
  )

  (symbol (lib_id "ProgramadorTelitESP32-rescue:R-device") (at 106.045 145.415 90) (unit 1)
    (in_bom yes) (on_board yes)
    (uuid 00000000-0000-0000-0000-00005d1f80d7)
    (property "Reference" "R2" (id 0) (at 106.045 150.6728 90))
    (property "Value" "" (id 1) (at 106.045 148.3614 90))
    (property "Footprint" "" (id 2) (at 106.045 147.193 90)
      (effects (font (size 1.27 1.27)) hide)
    )
    (property "Datasheet" "" (id 3) (at 106.045 145.415 0)
      (effects (font (size 1.27 1.27)) hide)
    )
    (property "MPN" "CR0603-JW-512ELF" (id 4) (at 106.045 145.415 90)
      (effects (font (size 1.524 1.524)) hide)
    )
    (pin "1" (uuid 81b44f01-b50a-4158-b25b-5ceb3c117393))
    (pin "2" (uuid d4cfb9fc-26f3-47bd-9ac6-15ca4e615842))
  )

  (symbol (lib_id "power:GND") (at 83.82 177.165 0) (unit 1)
    (in_bom yes) (on_board yes)
    (uuid 00000000-0000-0000-0000-00005d1fac8a)
    (property "Reference" "#PWR0102" (id 0) (at 83.82 183.515 0)
      (effects (font (size 1.27 1.27)) hide)
    )
    (property "Value" "" (id 1) (at 83.947 181.5592 0))
    (property "Footprint" "" (id 2) (at 83.82 177.165 0)
      (effects (font (size 1.27 1.27)) hide)
    )
    (property "Datasheet" "" (id 3) (at 83.82 177.165 0)
      (effects (font (size 1.27 1.27)) hide)
    )
    (pin "1" (uuid 6640c012-d068-4585-bd40-a6b73ed05da5))
  )

  (symbol (lib_id "power:GND") (at 40.64 160.02 0) (unit 1)
    (in_bom yes) (on_board yes)
    (uuid 00000000-0000-0000-0000-00005d1fbf27)
    (property "Reference" "#PWR0103" (id 0) (at 40.64 166.37 0)
      (effects (font (size 1.27 1.27)) hide)
    )
    (property "Value" "" (id 1) (at 40.767 164.4142 0))
    (property "Footprint" "" (id 2) (at 40.64 160.02 0)
      (effects (font (size 1.27 1.27)) hide)
    )
    (property "Datasheet" "" (id 3) (at 40.64 160.02 0)
      (effects (font (size 1.27 1.27)) hide)
    )
    (pin "1" (uuid e2cd8e8b-b37f-4371-8c3c-4d7162efb763))
  )

  (symbol (lib_id "power:GND") (at 113.665 142.875 90) (unit 1)
    (in_bom yes) (on_board yes)
    (uuid 00000000-0000-0000-0000-00005d1fcb51)
    (property "Reference" "#PWR0104" (id 0) (at 120.015 142.875 0)
      (effects (font (size 1.27 1.27)) hide)
    )
    (property "Value" "" (id 1) (at 116.9162 142.748 90)
      (effects (font (size 1.27 1.27)) (justify right))
    )
    (property "Footprint" "" (id 2) (at 113.665 142.875 0)
      (effects (font (size 1.27 1.27)) hide)
    )
    (property "Datasheet" "" (id 3) (at 113.665 142.875 0)
      (effects (font (size 1.27 1.27)) hide)
    )
    (pin "1" (uuid 207fc2cd-2709-438f-a0ca-d26e9024867a))
  )

  (symbol (lib_id "ProgramadorTelitESP32-rescue:CP2102N-A01-GQFN24-silabs-birdchile-rescue") (at 247.015 123.825 0) (unit 1)
    (in_bom yes) (on_board yes)
    (uuid 00000000-0000-0000-0000-00005d242ca4)
    (property "Reference" "U2" (id 0) (at 263.525 95.885 0))
    (property "Value" "" (id 1) (at 273.05 98.425 0))
    (property "Footprint" "" (id 2) (at 258.445 144.145 0)
      (effects (font (size 1.27 1.27)) (justify left) hide)
    )
    (property "Datasheet" "http://www.silabs.com/support%20documents/technicaldocs/cp2102n-datasheet.pdf" (id 3) (at 248.285 150.495 0)
      (effects (font (size 1.27 1.27)) hide)
    )
    (property "MPN" "CP2102N-A02-GQFN24" (id 4) (at 247.015 123.825 0)
      (effects (font (size 1.27 1.27)) hide)
    )
    (pin "1" (uuid a59fd0d6-f09f-4d2c-86ac-65575f241582))
    (pin "10" (uuid 7dfa8a60-a774-4d7b-bdd0-501464c5c541))
    (pin "11" (uuid dddf6ffe-bb80-45b2-b217-a4a35fc4c028))
    (pin "12" (uuid 04f85b1d-4d61-4e5a-8f01-2b67f09ef4d7))
    (pin "13" (uuid b59ff8f7-790e-4522-87b9-5719737e4640))
    (pin "14" (uuid 3c469f05-53a9-48a3-9c2c-e7801ded879b))
    (pin "15" (uuid 66955d3c-d746-41bf-9f85-512a3bc00115))
    (pin "16" (uuid c68fc002-b1c8-4889-8a33-505090b3d4df))
    (pin "17" (uuid 1ec570d1-70a8-471d-b942-063b7ed2ec1f))
    (pin "18" (uuid 3b7f21af-7965-447d-b386-4e3072d7e868))
    (pin "19" (uuid 6b4fb8df-f2b2-4c33-863e-aa7d186bda22))
    (pin "2" (uuid 81951985-c6a6-456e-9f9f-6df1b6433365))
    (pin "20" (uuid 7e9d8d6f-e761-4fb8-98d8-2eefd3d6986d))
    (pin "21" (uuid c8b4efa6-7e2d-49b7-88ea-57bc93a05e97))
    (pin "22" (uuid d1f95b50-8151-452f-b064-ec0558b98082))
    (pin "23" (uuid 62bf57ea-1cc6-419a-b675-582a2321639a))
    (pin "24" (uuid 88823142-7afe-4ddb-94c7-dfd506d12a8a))
    (pin "25" (uuid 007158a7-1122-43d8-b090-b19833fb5bf9))
    (pin "3" (uuid bbaac358-9127-4e86-9cdd-a30dfc55d727))
    (pin "4" (uuid d2080a86-ed41-4e01-af59-c3d7fcb05b4f))
    (pin "5" (uuid e2ce958f-5734-499e-aa6a-0e14fcd566fc))
    (pin "6" (uuid ea290c42-de10-47c8-82bf-fbfd1b4a27ca))
    (pin "7" (uuid 01eb01d1-83b0-456b-a363-c7680bd15630))
    (pin "8" (uuid e341da36-ff64-4018-93a7-871e444644b7))
    (pin "9" (uuid e253eec0-616e-4212-9018-31b4f5e78e4e))
  )

  (symbol (lib_id "ProgramadorTelitESP32-rescue:R-device") (at 121.92 91.44 270) (unit 1)
    (in_bom yes) (on_board yes)
    (uuid 00000000-0000-0000-0000-00005d2437d7)
    (property "Reference" "R4" (id 0) (at 121.92 86.1822 90))
    (property "Value" "" (id 1) (at 121.92 88.4936 90))
    (property "Footprint" "" (id 2) (at 121.92 89.662 90)
      (effects (font (size 1.27 1.27)) hide)
    )
    (property "Datasheet" "" (id 3) (at 121.92 91.44 0)
      (effects (font (size 1.27 1.27)) hide)
    )
    (property "MPN" "CR0603-JW-103ELF" (id 4) (at 121.92 91.44 90)
      (effects (font (size 1.524 1.524)) hide)
    )
    (pin "1" (uuid 486fd280-25e0-4cc6-a191-6d23e4489831))
    (pin "2" (uuid b583305f-1632-48e5-b71a-09834e4712d2))
  )

  (symbol (lib_id "ProgramadorTelitESP32-rescue:C-device") (at 258.445 89.535 90) (unit 1)
    (in_bom yes) (on_board yes)
    (uuid 00000000-0000-0000-0000-00005d27ee62)
    (property "Reference" "C3" (id 0) (at 257.2766 86.614 0)
      (effects (font (size 1.27 1.27)) (justify left))
    )
    (property "Value" "" (id 1) (at 259.588 86.614 0)
      (effects (font (size 1.27 1.27)) (justify left))
    )
    (property "Footprint" "" (id 2) (at 262.255 88.5698 0)
      (effects (font (size 1.27 1.27)) hide)
    )
    (property "Datasheet" "~" (id 3) (at 258.445 89.535 0)
      (effects (font (size 1.27 1.27)) hide)
    )
    (property "MPN" "LMK107B7105KA-T" (id 4) (at 258.445 89.535 0)
      (effects (font (size 1.27 1.27)) hide)
    )
    (pin "1" (uuid 4717c5be-746d-4e66-8779-dd5a3ce7483d))
    (pin "2" (uuid 81279bcd-ffc2-45a2-ab43-dcd2908180e0))
  )

  (symbol (lib_id "power:GND") (at 264.795 89.535 90) (unit 1)
    (in_bom yes) (on_board yes)
    (uuid 00000000-0000-0000-0000-00005d282cad)
    (property "Reference" "#PWR0106" (id 0) (at 271.145 89.535 0)
      (effects (font (size 1.27 1.27)) hide)
    )
    (property "Value" "" (id 1) (at 269.1892 89.408 0))
    (property "Footprint" "" (id 2) (at 264.795 89.535 0)
      (effects (font (size 1.27 1.27)) hide)
    )
    (property "Datasheet" "" (id 3) (at 264.795 89.535 0)
      (effects (font (size 1.27 1.27)) hide)
    )
    (pin "1" (uuid 7520b785-b457-4434-92e1-4b0befc758af))
  )

  (symbol (lib_id "Connector_Generic:Conn_01x06") (at 187.325 86.995 0) (unit 1)
    (in_bom yes) (on_board yes)
    (uuid 00000000-0000-0000-0000-00005db2a620)
    (property "Reference" "J3" (id 0) (at 189.357 87.1982 0)
      (effects (font (size 1.27 1.27)) (justify left))
    )
    (property "Value" "" (id 1) (at 189.357 89.5096 0)
      (effects (font (size 1.27 1.27)) (justify left))
    )
    (property "Footprint" "" (id 2) (at 187.325 86.995 0)
      (effects (font (size 1.27 1.27)) hide)
    )
    (property "Datasheet" "~" (id 3) (at 187.325 86.995 0)
      (effects (font (size 1.27 1.27)) hide)
    )
    (property "MPN" "440054-6" (id 4) (at 187.325 86.995 0)
      (effects (font (size 1.27 1.27)) hide)
    )
    (pin "1" (uuid 7db31136-17a6-40ef-b643-a9b01ca633ef))
    (pin "2" (uuid 8215ab49-487e-4f44-aae7-05ec5b9d0019))
    (pin "3" (uuid d1aec2ed-ddb3-4d19-acc4-fb896cfbc372))
    (pin "4" (uuid 94f4cdb9-5e1a-4fb0-a6bd-447a72bf7964))
    (pin "5" (uuid 12f903c6-aa25-498e-8e35-d794f964bcd1))
    (pin "6" (uuid 16f07e05-a996-4e2c-95ea-dc3f85b7baa6))
  )

  (symbol (lib_id "Connector_Generic:Conn_01x06") (at 191.135 120.523 0) (unit 1)
    (in_bom yes) (on_board no)
    (uuid 8755b135-b5fe-48fe-9109-8ce3dfbe8780)
    (property "Reference" "J4" (id 0) (at 193.167 120.7262 0)
      (effects (font (size 1.27 1.27)) (justify left))
    )
    (property "Value" "Conn_01x06" (id 1) (at 193.167 123.0376 0)
      (effects (font (size 1.27 1.27)) (justify left))
    )
    (property "Footprint" "Connector_JST:JST_PH_B6B-PH-K_1x06_P2.00mm_Vertical" (id 2) (at 191.135 120.523 0)
      (effects (font (size 1.27 1.27)) hide)
    )
    (property "Datasheet" "~" (id 3) (at 191.135 120.523 0)
      (effects (font (size 1.27 1.27)) hide)
    )
    (property "MPN" "440129-6" (id 4) (at 191.135 120.523 0)
      (effects (font (size 1.27 1.27)) hide)
    )
    (pin "1" (uuid 3cf2c000-3616-426b-9ac8-59ed474077aa))
    (pin "2" (uuid 5ff401c7-a87a-4fd1-8ae5-e1647154fc0a))
    (pin "3" (uuid 8c85ec13-abe0-4b12-ab81-6c818fa62378))
    (pin "4" (uuid f444e37b-3d38-4c66-800c-5059b12af8ff))
    (pin "5" (uuid 2c8071c1-775f-4994-9467-a1572822bf14))
    (pin "6" (uuid 35b67105-7f40-4c15-8a2d-b22ff18d73f8))
  )

  (symbol (lib_id "Connector_Generic:Conn_01x06") (at 170.942 120.65 0) (unit 1)
    (in_bom yes) (on_board no)
    (uuid e592722b-13d9-48ad-b532-9a7bfe495574)
    (property "Reference" "J2" (id 0) (at 172.974 120.8532 0)
      (effects (font (size 1.27 1.27)) (justify left))
    )
    (property "Value" "" (id 1) (at 172.974 123.1646 0)
      (effects (font (size 1.27 1.27)) (justify left))
    )
    (property "Footprint" "" (id 2) (at 170.942 120.65 0)
      (effects (font (size 1.27 1.27)) hide)
    )
    (property "Datasheet" "~" (id 3) (at 170.942 120.65 0)
      (effects (font (size 1.27 1.27)) hide)
    )
    (property "MPN" "440129-6" (id 4) (at 170.942 120.65 0)
      (effects (font (size 1.27 1.27)) hide)
    )
    (pin "1" (uuid 3f836702-e945-443f-8501-37bd3e87adf0))
    (pin "2" (uuid 18b18a92-96fd-4fda-a095-66bdcf07a04c))
    (pin "3" (uuid d52243c6-c654-4a97-88f2-20409f04c059))
    (pin "4" (uuid 59390a1a-22d0-440c-b20d-876f11fbc57e))
    (pin "5" (uuid fbe45de8-cdcb-47ec-a154-9ac6d0dede3b))
    (pin "6" (uuid d891fc58-5b2d-4e74-a96d-727b8ad80f97))
  )

  (sheet_instances
    (path "/" (page "1"))
  )

  (symbol_instances
    (path "/00000000-0000-0000-0000-00005d1f2ab7"
      (reference "#PWR0101") (unit 1) (value "GND") (footprint "")
    )
    (path "/00000000-0000-0000-0000-00005d1fac8a"
      (reference "#PWR0102") (unit 1) (value "GND") (footprint "")
    )
    (path "/00000000-0000-0000-0000-00005d1fbf27"
      (reference "#PWR0103") (unit 1) (value "GND") (footprint "")
    )
    (path "/00000000-0000-0000-0000-00005d1fcb51"
      (reference "#PWR0104") (unit 1) (value "GND") (footprint "")
    )
    (path "/00000000-0000-0000-0000-00005d1dce27"
      (reference "#PWR0105") (unit 1) (value "GND") (footprint "")
    )
    (path "/00000000-0000-0000-0000-00005d282cad"
      (reference "#PWR0106") (unit 1) (value "GND") (footprint "")
    )
    (path "/00000000-0000-0000-0000-00005d1d292c"
      (reference "C1") (unit 1) (value "1uF") (footprint "Capacitor_SMD:C_0603_1608Metric")
    )
    (path "/00000000-0000-0000-0000-00005d1d8492"
      (reference "C2") (unit 1) (value "2.2uF") (footprint "Capacitor_SMD:C_0603_1608Metric")
    )
    (path "/00000000-0000-0000-0000-00005d27ee62"
      (reference "C3") (unit 1) (value "1uF") (footprint "Capacitor_SMD:C_0603_1608Metric")
    )
    (path "/00000000-0000-0000-0000-00005d1bd1b7"
      (reference "J1") (unit 1) (value "USB_C_Receptacle_USB2.0") (footprint "FootprintsZembia:CX90M-16P")
    )
    (path "/e592722b-13d9-48ad-b532-9a7bfe495574"
      (reference "J2") (unit 1) (value "Conn_01x06") (footprint "Connector_JST:JST_PH_B6B-PH-K_1x06_P2.00mm_Vertical")
    )
    (path "/00000000-0000-0000-0000-00005db2a620"
      (reference "J3") (unit 1) (value "Conn_01x06") (footprint "Connector_JST:JST_PH_B6B-PH-K_1x06_P2.00mm_Vertical")
    )
    (path "/8755b135-b5fe-48fe-9109-8ce3dfbe8780"
      (reference "J4") (unit 1) (value "Conn_01x06") (footprint "Connector_JST:JST_PH_B6B-PH-K_1x06_P2.00mm_Vertical")
    )
    (path "/00000000-0000-0000-0000-00005d1e9712"
      (reference "JP1") (unit 1) (value "Jumper_3_Open") (footprint "Jumper:SolderJumper-3_P1.3mm_Open_Pad1.0x1.5mm")
    )
    (path "/00000000-0000-0000-0000-00005d1e16eb"
      (reference "Q1") (unit 1) (value "MBT3904DW1T1G") (footprint "Package_TO_SOT_SMD:SOT-363_SC-70-6")
    )
    (path "/00000000-0000-0000-0000-00005d1e1e3f"
      (reference "Q1") (unit 2) (value "MBT3904DW1T1G") (footprint "Package_TO_SOT_SMD:SOT-363_SC-70-6")
    )
    (path "/00000000-0000-0000-0000-00005d1f7ce9"
      (reference "R1") (unit 1) (value "5.1k") (footprint "Resistors_SMD:R_0603")
    )
    (path "/00000000-0000-0000-0000-00005d1f80d7"
      (reference "R2") (unit 1) (value "5.1k") (footprint "Resistors_SMD:R_0603")
    )
    (path "/00000000-0000-0000-0000-00005d1b96cd"
      (reference "R3") (unit 1) (value "10k") (footprint "Resistors_SMD:R_0603")
    )
    (path "/00000000-0000-0000-0000-00005d2437d7"
      (reference "R4") (unit 1) (value "10k") (footprint "Resistors_SMD:R_0603")
    )
    (path "/00000000-0000-0000-0000-00005d1ec19d"
      (reference "R5") (unit 1) (value "1k") (footprint "Resistors_SMD:R_0603")
    )
    (path "/00000000-0000-0000-0000-00005d1d0347"
      (reference "U1") (unit 1) (value "TLV75733PDBVR") (footprint "Package_TO_SOT_SMD:SOT-23-5")
    )
    (path "/00000000-0000-0000-0000-00005d242ca4"
      (reference "U2") (unit 1) (value "CP2102N-A02-GQFN24") (footprint "Housings_DFN_QFN:QFN-24-1EP_4x4mm_Pitch0.5mm")
    )
  )
)
