EESchema Schematic File Version 4
LIBS:ProgramadorTelitESP32-cache
EELAYER 30 0
EELAYER END
$Descr A4 11693 8268
encoding utf-8
Sheet 1 1
Title ""
Date ""
Rev ""
Comp ""
Comment1 ""
Comment2 ""
Comment3 ""
Comment4 ""
$EndDescr
$Comp
L ProgramadorTelitESP32-rescue:CP2102N-A01-GQFN24-silabs-birdchile-rescue U2
U 1 1 5D242CA4
P 9725 4875
F 0 "U2" H 10375 5975 50  0000 C CNN
F 1 "CP2102N-A02-GQFN24" H 10750 5875 50  0000 C CNN
F 2 "Housings_DFN_QFN:QFN-24-1EP_4x4mm_Pitch0.5mm" H 10175 4075 50  0001 L CNN
F 3 "http://www.silabs.com/support%20documents/technicaldocs/cp2102n-datasheet.pdf" H 9775 3825 50  0001 C CNN
F 4 "CP2102N-A02-GQFN24" H 9725 4875 50  0001 C CNN "MPN"
	1    9725 4875
	1    0    0    -1  
$EndComp
$Comp
L ProgramadorTelitESP32-rescue:R-device R4
U 1 1 5D2437D7
P 4800 3600
F 0 "R4" V 4593 3600 50  0000 C CNN
F 1 "10k" V 4684 3600 50  0000 C CNN
F 2 "Resistors_SMD:R_0603" V 4730 3600 50  0001 C CNN
F 3 "" H 4800 3600 50  0001 C CNN
F 4 "CR0603-JW-103ELF" V 4800 3600 60  0001 C CNN "MPN"
	1    4800 3600
	0    1    1    0   
$EndComp
Wire Wire Line
	4500 3600 4650 3600
Wire Wire Line
	4500 4275 4625 4275
Wire Wire Line
	4200 4075 4200 4000
Wire Wire Line
	4200 4000 5150 4000
Wire Wire Line
	5150 4000 5150 3600
Wire Wire Line
	5150 3600 4950 3600
Wire Wire Line
	4200 3800 4200 3900
Wire Wire Line
	4200 3900 5075 3900
Wire Wire Line
	5075 3900 5075 4275
Wire Wire Line
	5075 4275 4925 4275
Wire Wire Line
	4200 3400 4200 3200
Text Label 4200 3200 0    60   ~ 0
CHIP_PU
Text Label 4200 4700 0    60   ~ 0
GPIO0
Wire Wire Line
	4200 4700 4200 4475
Wire Wire Line
	5075 4275 5375 4275
Connection ~ 5075 4275
Wire Wire Line
	5150 3600 5350 3600
Connection ~ 5150 3600
Text Label 5350 3600 0    60   ~ 0
DTR
Text Label 5375 4275 0    60   ~ 0
RTS
Wire Wire Line
	10325 4475 10775 4475
Text Label 10775 4475 0    60   ~ 0
RTS
Text Label 10775 4875 0    60   ~ 0
DTR
Wire Wire Line
	10775 4875 10325 4875
Wire Wire Line
	10325 4575 10775 4575
Wire Wire Line
	10325 4675 10775 4675
Text Label 10775 4675 0    60   ~ 0
TXD
Text Label 10775 4575 0    60   ~ 0
RXD
$Comp
L ProgramadorTelitESP32-rescue:R-device R3
U 1 1 5D1B96CD
P 4775 4275
F 0 "R3" V 4568 4275 50  0000 C CNN
F 1 "10k" V 4659 4275 50  0000 C CNN
F 2 "Resistors_SMD:R_0603" V 4705 4275 50  0001 C CNN
F 3 "" H 4775 4275 50  0001 C CNN
F 4 "CR0603-JW-103ELF" V 4775 4275 60  0001 C CNN "MPN"
	1    4775 4275
	0    1    1    0   
$EndComp
$Comp
L Transistor_BJT:BC846BS Q1
U 1 1 5D1E16EB
P 4300 3600
F 0 "Q1" H 4491 3646 50  0000 L CNN
F 1 "MBT3904DW1T1G" H 4491 3555 50  0000 L CNN
F 2 "Package_TO_SOT_SMD:SOT-363_SC-70-6" H 4500 3700 50  0001 C CNN
F 3 "https://assets.nexperia.com/documents/data-sheet/BC846BS.pdf" H 4300 3600 50  0001 C CNN
F 4 "MBT3904DW1T1G" H 4300 3600 50  0001 C CNN "MPN"
	1    4300 3600
	-1   0    0    -1  
$EndComp
$Comp
L Transistor_BJT:BC846BS Q1
U 2 1 5D1E1E3F
P 4300 4275
F 0 "Q1" H 4491 4229 50  0000 L CNN
F 1 "MBT3904DW1T1G" H 4491 4320 50  0000 L CNN
F 2 "Package_TO_SOT_SMD:SOT-363_SC-70-6" H 4500 4375 50  0001 C CNN
F 3 "https://assets.nexperia.com/documents/data-sheet/BC846BS.pdf" H 4300 4275 50  0001 C CNN
F 4 "MBT3904DW1T1G" H 4300 4275 50  0001 C CNN "MPN"
	2    4300 4275
	-1   0    0    1   
$EndComp
$Comp
L ProgramadorTelitESP32-rescue:R-device R5
U 1 1 5D1EC19D
P 8875 4275
F 0 "R5" V 8668 4275 50  0000 C CNN
F 1 "1k" V 8759 4275 50  0000 C CNN
F 2 "Resistors_SMD:R_0603" V 8805 4275 50  0001 C CNN
F 3 "" H 8875 4275 50  0001 C CNN
F 4 "CR0603-JW-102ELF" V 8875 4275 60  0001 C CNN "MPN"
	1    8875 4275
	0    1    1    0   
$EndComp
Wire Wire Line
	9025 4275 9125 4275
Wire Wire Line
	8725 4275 8550 4275
Wire Wire Line
	8550 4275 8550 4125
Text Label 8550 4125 0    60   ~ 0
VIO
Text Label 9725 3725 0    60   ~ 0
VIO
Wire Wire Line
	9625 3975 9625 3725
Text Label 9625 3725 2    60   ~ 0
VDD
$Comp
L power:GND #PWR0101
U 1 1 5D1F2AB7
P 9725 6000
F 0 "#PWR0101" H 9725 5750 50  0001 C CNN
F 1 "GND" H 9730 5827 50  0000 C CNN
F 2 "" H 9725 6000 50  0001 C CNN
F 3 "" H 9725 6000 50  0001 C CNN
	1    9725 6000
	1    0    0    -1  
$EndComp
Wire Wire Line
	9725 5775 9725 5950
Wire Wire Line
	9825 5950 9725 5950
Wire Wire Line
	9825 5775 9825 5950
Connection ~ 9725 5950
Wire Wire Line
	9725 5950 9725 6000
$Comp
L ProgramadorTelitESP32-rescue:R-device R1
U 1 1 5D1F7CE9
P 4175 5625
F 0 "R1" V 3968 5625 50  0000 C CNN
F 1 "5.1k" V 4059 5625 50  0000 C CNN
F 2 "Resistors_SMD:R_0603" V 4105 5625 50  0001 C CNN
F 3 "" H 4175 5625 50  0001 C CNN
F 4 "CR0603-JW-512ELF" V 4175 5625 60  0001 C CNN "MPN"
	1    4175 5625
	0    1    1    0   
$EndComp
$Comp
L ProgramadorTelitESP32-rescue:R-device R2
U 1 1 5D1F80D7
P 4175 5725
F 0 "R2" V 3968 5725 50  0000 C CNN
F 1 "5.1k" V 4059 5725 50  0000 C CNN
F 2 "Resistors_SMD:R_0603" V 4105 5725 50  0001 C CNN
F 3 "" H 4175 5725 50  0001 C CNN
F 4 "CR0603-JW-512ELF" V 4175 5725 60  0001 C CNN "MPN"
	1    4175 5725
	0    -1   -1   0   
$EndComp
Wire Wire Line
	3900 5625 4025 5625
Wire Wire Line
	3900 5725 4025 5725
$Comp
L power:GND #PWR0102
U 1 1 5D1FAC8A
P 3300 6975
F 0 "#PWR0102" H 3300 6725 50  0001 C CNN
F 1 "GND" H 3305 6802 50  0000 C CNN
F 2 "" H 3300 6975 50  0001 C CNN
F 3 "" H 3300 6975 50  0001 C CNN
	1    3300 6975
	1    0    0    -1  
$EndComp
Wire Wire Line
	3300 6925 3300 6975
Text GLabel 1400 6275 0    60   Input ~ 0
GND
$Comp
L power:GND #PWR0103
U 1 1 5D1FBF27
P 1600 6300
F 0 "#PWR0103" H 1600 6050 50  0001 C CNN
F 1 "GND" H 1605 6127 50  0000 C CNN
F 2 "" H 1600 6300 50  0001 C CNN
F 3 "" H 1600 6300 50  0001 C CNN
	1    1600 6300
	1    0    0    -1  
$EndComp
Wire Wire Line
	1400 6275 1600 6275
Wire Wire Line
	1600 6275 1600 6300
$Comp
L power:GND #PWR0104
U 1 1 5D1FCB51
P 4475 5625
F 0 "#PWR0104" H 4475 5375 50  0001 C CNN
F 1 "GND" V 4480 5497 50  0000 R CNN
F 2 "" H 4475 5625 50  0001 C CNN
F 3 "" H 4475 5625 50  0001 C CNN
	1    4475 5625
	0    -1   -1   0   
$EndComp
Wire Wire Line
	4325 5625 4400 5625
Wire Wire Line
	4325 5725 4400 5725
Wire Wire Line
	4400 5725 4400 5625
Connection ~ 4400 5625
Wire Wire Line
	4400 5625 4475 5625
Wire Wire Line
	3900 5925 4025 5925
Wire Wire Line
	4025 5925 4025 6025
Wire Wire Line
	4025 6025 3900 6025
Wire Wire Line
	3900 6125 4025 6125
Wire Wire Line
	4025 6125 4025 6225
Wire Wire Line
	4025 6225 3900 6225
Text Label 4025 6025 0    60   ~ 0
D-
Text Label 4025 6225 0    60   ~ 0
D+
Text Label 8900 5375 0    60   ~ 0
D-
Wire Wire Line
	8900 5375 9125 5375
Text Label 8900 5275 0    60   ~ 0
D+
Wire Wire Line
	8900 5275 9125 5275
Text Label 4000 5425 0    60   ~ 0
VBUS
Wire Wire Line
	4000 5425 3900 5425
Text Label 8850 5175 0    60   ~ 0
VBUS
Wire Wire Line
	8850 5175 9125 5175
Text Label 8850 4875 0    60   ~ 0
VBUS
Wire Wire Line
	8850 4875 9125 4875
$Comp
L Connector:USB_C_Receptacle_USB2.0 J1
U 1 1 5D1BD1B7
P 3300 6025
F 0 "J1" H 3407 6982 50  0000 C CNN
F 1 "USB_C_Receptacle_USB2.0" H 3407 6891 50  0000 C CNN
F 2 "FootprintsZembia:CX90M-16P" H 3407 6800 50  0000 C CNN
F 3 "" H 3450 6025 50  0001 C CNN
F 4 "CX90M-16P" H 3300 6025 50  0001 C CNN "MPN"
	1    3300 6025
	1    0    0    -1  
$EndComp
Text Label 2425 4925 0    60   ~ 0
VOUT
Wire Wire Line
	9625 3725 9725 3725
Connection ~ 9725 3725
Wire Wire Line
	9725 3725 9725 3975
$Comp
L Regulator_Linear:TLV75515PDBV U1
U 1 1 5D1D0347
P 1600 4700
F 0 "U1" H 1600 5042 50  0000 C CNN
F 1 "TLV75733PDBVR" H 1600 4951 50  0000 C CNN
F 2 "Package_TO_SOT_SMD:SOT-23-5" H 1600 5000 50  0001 C CIN
F 3 "" H 1600 4700 50  0001 C CNN
F 4 "TLV75733PDBVR" H 1600 4700 50  0001 C CNN "MPN"
	1    1600 4700
	1    0    0    -1  
$EndComp
Text Label 675  4600 0    60   ~ 0
VBUS
$Comp
L ProgramadorTelitESP32-rescue:C-device C1
U 1 1 5D1D292C
P 1175 4850
F 0 "C1" H 1290 4896 50  0000 L CNN
F 1 "1uF" H 1290 4805 50  0000 L CNN
F 2 "Capacitor_SMD:C_0603_1608Metric" H 1213 4700 50  0001 C CNN
F 3 "~" H 1175 4850 50  0001 C CNN
F 4 "LMK107B7105KA-T" H 1175 4850 50  0001 C CNN "MPN"
	1    1175 4850
	-1   0    0    1   
$EndComp
Wire Wire Line
	675  4600 1175 4600
Wire Wire Line
	1300 4700 1175 4700
Wire Wire Line
	1175 4700 1175 4600
Connection ~ 1175 4600
Wire Wire Line
	1175 4600 1300 4600
Connection ~ 1175 4700
$Comp
L ProgramadorTelitESP32-rescue:C-device C2
U 1 1 5D1D8492
P 2175 4850
F 0 "C2" H 2290 4896 50  0000 L CNN
F 1 "1uF" H 2290 4805 50  0000 L CNN
F 2 "Capacitor_SMD:C_0603_1608Metric" H 2213 4700 50  0001 C CNN
F 3 "~" H 2175 4850 50  0001 C CNN
F 4 "LMK107B7105KA-T" H 2175 4850 50  0001 C CNN "MPN"
	1    2175 4850
	-1   0    0    1   
$EndComp
Wire Wire Line
	1900 4600 2175 4600
Wire Wire Line
	2175 4600 2175 4700
$Comp
L power:GND #PWR0105
U 1 1 5D1DCE27
P 1600 5175
F 0 "#PWR0105" H 1600 4925 50  0001 C CNN
F 1 "GND" V 1605 5047 50  0000 R CNN
F 2 "" H 1600 5175 50  0001 C CNN
F 3 "" H 1600 5175 50  0001 C CNN
	1    1600 5175
	1    0    0    -1  
$EndComp
Wire Wire Line
	1600 5175 1600 5100
Wire Wire Line
	1175 5000 1175 5100
Wire Wire Line
	1175 5100 1600 5100
Connection ~ 1600 5100
Wire Wire Line
	1600 5100 1600 5000
Wire Wire Line
	1600 5100 2175 5100
Wire Wire Line
	2175 5100 2175 5000
$Comp
L Jumper:Jumper_3_Open JP1
U 1 1 5D1E9712
P 2425 4600
F 0 "JP1" H 2425 4824 50  0000 C CNN
F 1 "Jumper_3_Open" H 2425 4733 50  0000 C CNN
F 2 "Jumper:SolderJumper-3_P1.3mm_Open_Pad1.0x1.5mm" H 2425 4600 50  0001 C CNN
F 3 "~" H 2425 4600 50  0001 C CNN
	1    2425 4600
	1    0    0    -1  
$EndComp
Connection ~ 2175 4600
Wire Wire Line
	2425 4925 2425 4750
Wire Wire Line
	2750 4600 2675 4600
NoConn ~ 10325 4775
NoConn ~ 10325 4375
NoConn ~ 10325 4275
NoConn ~ 10325 4975
NoConn ~ 10325 5175
NoConn ~ 10325 5275
NoConn ~ 10325 5375
NoConn ~ 10325 5475
NoConn ~ 9125 4575
NoConn ~ 9125 4675
NoConn ~ 3000 6925
NoConn ~ 3900 6625
NoConn ~ 3900 6525
$Comp
L ProgramadorTelitESP32-rescue:C-device C3
U 1 1 5D27EE62
P 10175 3525
F 0 "C3" H 10290 3571 50  0000 L CNN
F 1 "1uF" H 10290 3480 50  0000 L CNN
F 2 "Capacitor_SMD:C_0603_1608Metric" H 10213 3375 50  0001 C CNN
F 3 "~" H 10175 3525 50  0001 C CNN
F 4 "LMK107B7105KA-T" H 10175 3525 50  0001 C CNN "MPN"
	1    10175 3525
	0    -1   -1   0   
$EndComp
Wire Wire Line
	9725 3725 9975 3725
Wire Wire Line
	9975 3725 9975 3525
Wire Wire Line
	9975 3525 10025 3525
$Comp
L power:GND #PWR0106
U 1 1 5D282CAD
P 10425 3525
F 0 "#PWR0106" H 10425 3275 50  0001 C CNN
F 1 "GND" H 10430 3352 50  0000 C CNN
F 2 "" H 10425 3525 50  0001 C CNN
F 3 "" H 10425 3525 50  0001 C CNN
	1    10425 3525
	0    -1   -1   0   
$EndComp
Wire Wire Line
	10325 3525 10425 3525
Text Label 2750 4600 0    60   ~ 0
VBUS
Text Label 2025 4600 0    50   ~ 0
3V3
$Comp
L Connector_Generic:Conn_01x06 J2
U 1 1 5DB1A983
P 7375 2725
F 0 "J2" H 7455 2717 50  0000 L CNN
F 1 "Conn_01x06" H 7455 2626 50  0000 L CNN
F 2 "Connector_JST:JST_PH_S6B-PH-SM4-TB_1x06-1MP_P2.00mm_Horizontal" H 7375 2725 50  0001 C CNN
F 3 "~" H 7375 2725 50  0001 C CNN
F 4 "1775469-6" H 7375 2725 50  0001 C CNN "MPN"
	1    7375 2725
	1    0    0    -1  
$EndComp
Wire Wire Line
	7175 3025 7025 3025
Text Label 7025 3025 2    50   ~ 0
GND
Wire Wire Line
	7175 2925 7025 2925
Text Label 7025 2925 2    50   ~ 0
RTS
Wire Wire Line
	7175 2825 7025 2825
Text Label 7025 2825 2    50   ~ 0
DTR
Text Label 7025 2525 2    60   ~ 0
VOUT
Wire Wire Line
	7175 2525 7025 2525
Text Label 7025 2725 2    60   ~ 0
TXD
Wire Wire Line
	7025 2725 7175 2725
Text Label 7025 2625 2    60   ~ 0
RXD
Wire Wire Line
	7025 2625 7175 2625
Text Notes 6875 2375 0    50   ~ 0
Telit/Xbee Connector
$Comp
L Connector_Generic:Conn_01x06 J3
U 1 1 5DB2A620
P 7375 3425
F 0 "J3" H 7455 3417 50  0000 L CNN
F 1 "Conn_01x06" H 7455 3326 50  0000 L CNN
F 2 "Connector_JST:JST_PH_B6B-PH-SM4-TB_1x06-1MP_P2.00mm_Vertical" H 7375 3425 50  0001 C CNN
F 3 "~" H 7375 3425 50  0001 C CNN
F 4 "1775470-6" H 7375 3425 50  0001 C CNN "MPN"
	1    7375 3425
	1    0    0    -1  
$EndComp
Text Label 7075 3225 2    60   ~ 0
VOUT
Wire Wire Line
	7075 3225 7175 3225
Text Label 7075 3725 2    50   ~ 0
GND
Wire Wire Line
	7075 3725 7175 3725
Text Label 7075 3325 2    60   ~ 0
RXD
Wire Wire Line
	7075 3325 7175 3325
Text Label 7075 3425 2    60   ~ 0
TXD
Wire Wire Line
	7075 3425 7175 3425
Text Label 7075 3525 2    60   ~ 0
CHIP_PU
Wire Wire Line
	7075 3525 7175 3525
Text Label 7075 3625 2    60   ~ 0
GPIO0
Wire Wire Line
	7075 3625 7175 3625
$EndSCHEMATC
