(export (version D)
  (design
    (source C:\Users\aleja\Documents\Zembia\ProgramadorESP32_Telit\ProgramadorTelitESP32\ProgramadorTelitESP32.sch)
    (date "24/10/2019 08:59:17")
    (tool "Eeschema (5.1.2)-2")
    (sheet (number 1) (name /) (tstamps /)
      (title_block
        (title)
        (company)
        (rev)
        (date)
        (source ProgramadorTelitESP32.sch)
        (comment (number 1) (value ""))
        (comment (number 2) (value ""))
        (comment (number 3) (value ""))
        (comment (number 4) (value "")))))
  (components
    (comp (ref U2)
      (value CP2102N-A02-GQFN24)
      (footprint Housings_DFN_QFN:QFN-24-1EP_4x4mm_Pitch0.5mm)
      (datasheet http://www.silabs.com/support%20documents/technicaldocs/cp2102n-datasheet.pdf)
      (fields
        (field (name MPN) CP2102N-A02-GQFN24))
      (libsource (lib ProgramadorTelitESP32-rescue) (part CP2102N-A01-GQFN24-silabs-birdchile-rescue) (description ""))
      (sheetpath (names /) (tstamps /))
      (tstamp 5D242CA4))
    (comp (ref R4)
      (value 10k)
      (footprint Resistors_SMD:R_0603)
      (fields
        (field (name MPN) CR0603-JW-103ELF))
      (libsource (lib device) (part R) (description Resistor))
      (sheetpath (names /) (tstamps /))
      (tstamp 5D2437D7))
    (comp (ref R3)
      (value 10k)
      (footprint Resistors_SMD:R_0603)
      (fields
        (field (name MPN) CR0603-JW-103ELF))
      (libsource (lib device) (part R) (description Resistor))
      (sheetpath (names /) (tstamps /))
      (tstamp 5D1B96CD))
    (comp (ref Q1)
      (value MBT3904DW1T1G)
      (footprint Package_TO_SOT_SMD:SOT-363_SC-70-6)
      (datasheet https://assets.nexperia.com/documents/data-sheet/BC846BS.pdf)
      (fields
        (field (name MPN) MBT3904DW1T1G))
      (libsource (lib Transistor_BJT) (part BC846BS) (description "100mA IC, 65V Vce, Dual NPN/NPN Transistors, SOT-363"))
      (sheetpath (names /) (tstamps /))
      (tstamp 5D1E16EB))
    (comp (ref R5)
      (value 1k)
      (footprint Resistors_SMD:R_0603)
      (fields
        (field (name MPN) CR0603-JW-102ELF))
      (libsource (lib device) (part R) (description Resistor))
      (sheetpath (names /) (tstamps /))
      (tstamp 5D1EC19D))
    (comp (ref R1)
      (value 5.1k)
      (footprint Resistors_SMD:R_0603)
      (fields
        (field (name MPN) CR0603-JW-512ELF))
      (libsource (lib device) (part R) (description Resistor))
      (sheetpath (names /) (tstamps /))
      (tstamp 5D1F7CE9))
    (comp (ref R2)
      (value 5.1k)
      (footprint Resistors_SMD:R_0603)
      (fields
        (field (name MPN) CR0603-JW-512ELF))
      (libsource (lib device) (part R) (description Resistor))
      (sheetpath (names /) (tstamps /))
      (tstamp 5D1F80D7))
    (comp (ref J1)
      (value USB_C_Receptacle_USB2.0)
      (footprint FootprintsZembia:CX90M-16P)
      (fields
        (field (name MPN) CX90M-16P))
      (libsource (lib Connector) (part USB_C_Receptacle_USB2.0) (description "USB 2.0-only Type-C Receptacle connector"))
      (sheetpath (names /) (tstamps /))
      (tstamp 5D1BD1B7))
    (comp (ref U1)
      (value TLV75733PDBVR)
      (footprint Package_TO_SOT_SMD:SOT-23-5)
      (fields
        (field (name MPN) TLV75733PDBVR))
      (libsource (lib Regulator_Linear) (part TLV75515PDBV) (description "500mA Low Dropout Voltage Regulator, Fixed Output 1.5V, SOT-23-5"))
      (sheetpath (names /) (tstamps /))
      (tstamp 5D1D0347))
    (comp (ref C1)
      (value 1uF)
      (footprint Capacitor_SMD:C_0603_1608Metric)
      (datasheet ~)
      (fields
        (field (name MPN) LMK107B7105KA-T))
      (libsource (lib device) (part C) (description "Unpolarized capacitor"))
      (sheetpath (names /) (tstamps /))
      (tstamp 5D1D292C))
    (comp (ref C2)
      (value 1uF)
      (footprint Capacitor_SMD:C_0603_1608Metric)
      (datasheet ~)
      (fields
        (field (name MPN) LMK107B7105KA-T))
      (libsource (lib device) (part C) (description "Unpolarized capacitor"))
      (sheetpath (names /) (tstamps /))
      (tstamp 5D1D8492))
    (comp (ref JP1)
      (value Jumper_3_Open)
      (footprint Jumper:SolderJumper-3_P1.3mm_Open_Pad1.0x1.5mm)
      (datasheet ~)
      (libsource (lib Jumper) (part Jumper_3_Open) (description "Jumper, 3-pole, both open"))
      (sheetpath (names /) (tstamps /))
      (tstamp 5D1E9712))
    (comp (ref C3)
      (value 1uF)
      (footprint Capacitor_SMD:C_0603_1608Metric)
      (datasheet ~)
      (fields
        (field (name MPN) LMK107B7105KA-T))
      (libsource (lib device) (part C) (description "Unpolarized capacitor"))
      (sheetpath (names /) (tstamps /))
      (tstamp 5D27EE62))
    (comp (ref J2)
      (value Conn_01x06)
      (footprint Connector_JST:JST_PH_S6B-PH-SM4-TB_1x06-1MP_P2.00mm_Horizontal)
      (datasheet ~)
      (fields
        (field (name MPN) 1775469-6))
      (libsource (lib Connector_Generic) (part Conn_01x06) (description "Generic connector, single row, 01x06, script generated (kicad-library-utils/schlib/autogen/connector/)"))
      (sheetpath (names /) (tstamps /))
      (tstamp 5DB1A983))
    (comp (ref J3)
      (value Conn_01x06)
      (footprint Connector_JST:JST_PH_B6B-PH-SM4-TB_1x06-1MP_P2.00mm_Vertical)
      (datasheet ~)
      (fields
        (field (name MPN) 1775470-6))
      (libsource (lib Connector_Generic) (part Conn_01x06) (description "Generic connector, single row, 01x06, script generated (kicad-library-utils/schlib/autogen/connector/)"))
      (sheetpath (names /) (tstamps /))
      (tstamp 5DB2A620)))
  (libparts
    (libpart (lib Connector) (part USB_C_Receptacle_USB2.0)
      (description "USB 2.0-only Type-C Receptacle connector")
      (docs https://www.usb.org/sites/default/files/documents/usb_type-c.zip)
      (footprints
        (fp USB*C*Receptacle*))
      (fields
        (field (name Reference) J)
        (field (name Value) USB_C_Receptacle_USB2.0))
      (pins
        (pin (num A1) (name GND) (type power_in))
        (pin (num A4) (name VBUS) (type power_in))
        (pin (num A5) (name CC1) (type BiDi))
        (pin (num A6) (name D+) (type BiDi))
        (pin (num A7) (name D-) (type BiDi))
        (pin (num A8) (name SBU1) (type BiDi))
        (pin (num A9) (name VBUS) (type passive))
        (pin (num A12) (name GND) (type passive))
        (pin (num B1) (name GND) (type passive))
        (pin (num B4) (name VBUS) (type passive))
        (pin (num B5) (name CC2) (type BiDi))
        (pin (num B6) (name D+) (type BiDi))
        (pin (num B7) (name D-) (type BiDi))
        (pin (num B8) (name SBU2) (type BiDi))
        (pin (num B9) (name VBUS) (type passive))
        (pin (num B12) (name GND) (type passive))
        (pin (num S1) (name SHIELD) (type passive))))
    (libpart (lib Connector_Generic) (part Conn_01x06)
      (description "Generic connector, single row, 01x06, script generated (kicad-library-utils/schlib/autogen/connector/)")
      (docs ~)
      (footprints
        (fp Connector*:*_1x??_*))
      (fields
        (field (name Reference) J)
        (field (name Value) Conn_01x06))
      (pins
        (pin (num 1) (name Pin_1) (type passive))
        (pin (num 2) (name Pin_2) (type passive))
        (pin (num 3) (name Pin_3) (type passive))
        (pin (num 4) (name Pin_4) (type passive))
        (pin (num 5) (name Pin_5) (type passive))
        (pin (num 6) (name Pin_6) (type passive))))
    (libpart (lib Jumper) (part Jumper_3_Open)
      (description "Jumper, 3-pole, both open")
      (docs ~)
      (footprints
        (fp SolderJumper*Open*))
      (fields
        (field (name Reference) JP)
        (field (name Value) Jumper_3_Open))
      (pins
        (pin (num 1) (name A) (type passive))
        (pin (num 2) (name C) (type input))
        (pin (num 3) (name B) (type passive))))
    (libpart (lib ProgramadorTelitESP32-rescue) (part CP2102N-A01-GQFN24-silabs-birdchile-rescue)
      (footprints
        (fp QFN*4x4mm*Pitch0.5mm*))
      (fields
        (field (name Reference) U)
        (field (name Value) CP2102N-A01-GQFN24-silabs-birdchile-rescue)
        (field (name Footprint) Housings_DFN_QFN:QFN-24-1EP_4x4mm_Pitch0.5mm))
      (pins
        (pin (num 1) (name RI/CLK) (type BiDi))
        (pin (num 2) (name GND) (type power_in))
        (pin (num 3) (name D+) (type BiDi))
        (pin (num 4) (name D-) (type BiDi))
        (pin (num 5) (name VIO) (type power_in))
        (pin (num 6) (name VDD) (type power_in))
        (pin (num 7) (name REGIN) (type power_in))
        (pin (num 8) (name VBUS) (type input))
        (pin (num 9) (name ~RSTb) (type input))
        (pin (num 10) (name NC) (type NotConnected))
        (pin (num 11) (name GPIO.3) (type BiDi))
        (pin (num 12) (name GPIO.2) (type BiDi))
        (pin (num 13) (name GPIO.1) (type BiDi))
        (pin (num 14) (name GPIO.0) (type BiDi))
        (pin (num 15) (name ~SUSPENDb) (type output))
        (pin (num 16) (name NC) (type NotConnected))
        (pin (num 17) (name SUSPEND) (type output))
        (pin (num 18) (name CTS) (type input))
        (pin (num 19) (name RTS) (type output))
        (pin (num 20) (name RXD) (type input))
        (pin (num 21) (name TXD) (type output))
        (pin (num 22) (name DSR) (type input))
        (pin (num 23) (name DTR) (type output))
        (pin (num 24) (name DCD) (type input))
        (pin (num 25) (name GND) (type power_in))))
    (libpart (lib Regulator_Linear) (part TLV71209_SOT23-5)
      (aliases
        (alias TLV71210_SOT23-5)
        (alias TLV71211_SOT23-5)
        (alias TLV71310PDBV)
        (alias TLV71311PDBV)
        (alias TLV71312PDBV)
        (alias TLV71315PDBV)
        (alias TLV71318PDBV)
        (alias TLV713185PDBV)
        (alias TLV71325PDBV)
        (alias TLV71328PDBV)
        (alias TLV713285PDBV)
        (alias TLV71330PDBV)
        (alias TLV71333PDBV)
        (alias TLV75509PDBV)
        (alias TLV75510PDBV)
        (alias TLV75512PDBV)
        (alias TLV75515PDBV)
        (alias TLV75518PDBV)
        (alias TLV75519PDBV)
        (alias TLV75525PDBV)
        (alias TLV75528PDBV)
        (alias TLV75529PDBV)
        (alias TLV75530PDBV)
        (alias TLV75533PDBV))
      (description "300mA Low Dropout Voltage Regulator, Fixed Output 0.9V, SOT-23-5")
      (docs http://www.ti.com/lit/ds/symlink/tlv712.pdf)
      (footprints
        (fp SOT?23*))
      (fields
        (field (name Reference) U)
        (field (name Value) TLV71209_SOT23-5)
        (field (name Footprint) Package_TO_SOT_SMD:SOT-23-5))
      (pins
        (pin (num 1) (name IN) (type power_in))
        (pin (num 2) (name GND) (type power_in))
        (pin (num 3) (name EN) (type input))
        (pin (num 4) (name NC) (type NotConnected))
        (pin (num 5) (name OUT) (type power_out))))
    (libpart (lib Transistor_BJT) (part BC846BS)
      (aliases
        (alias BC846BDW1)
        (alias BC847BS)
        (alias BC847BDW1)
        (alias PMBT2222AYS)
        (alias MMDT2222A)
        (alias MBT2222ADW1T1)
        (alias FFB2222A)
        (alias PMBT3904YS)
        (alias MMDT3904)
        (alias MBT3904DW1)
        (alias FFB3904)
        (alias MMDT5551)
        (alias FFB5551))
      (description "100mA IC, 65V Vce, Dual NPN/NPN Transistors, SOT-363")
      (docs https://assets.nexperia.com/documents/data-sheet/BC846BS.pdf)
      (footprints
        (fp SC?70*)
        (fp SC?88*)
        (fp SOT?363*))
      (fields
        (field (name Reference) Q)
        (field (name Value) BC846BS)
        (field (name Footprint) Package_TO_SOT_SMD:SOT-363_SC-70-6))
      (pins
        (pin (num 1) (name E1) (type passive))
        (pin (num 2) (name B1) (type input))
        (pin (num 3) (name C2) (type passive))
        (pin (num 4) (name E2) (type passive))
        (pin (num 5) (name B2) (type input))
        (pin (num 6) (name C1) (type passive))))
    (libpart (lib device) (part C)
      (description "Unpolarized capacitor")
      (docs ~)
      (footprints
        (fp C_*))
      (fields
        (field (name Reference) C)
        (field (name Value) C))
      (pins
        (pin (num 1) (name ~) (type passive))
        (pin (num 2) (name ~) (type passive))))
    (libpart (lib device) (part R)
      (description Resistor)
      (docs ~)
      (footprints
        (fp R_*))
      (fields
        (field (name Reference) R)
        (field (name Value) R))
      (pins
        (pin (num 1) (name ~) (type passive))
        (pin (num 2) (name ~) (type passive)))))
  (libraries
    (library (logical Connector)
      (uri "C:\\Program Files\\KiCad\\share\\kicad\\library/Connector.lib"))
    (library (logical Connector_Generic)
      (uri "C:\\Program Files\\KiCad\\share\\kicad\\library/Connector_Generic.lib"))
    (library (logical Jumper)
      (uri "C:\\Program Files\\KiCad\\share\\kicad\\library/Jumper.lib"))
    (library (logical ProgramadorTelitESP32-rescue)
      (uri C:\Users\aleja\Documents\Zembia\ProgramadorESP32_Telit\ProgramadorTelitESP32/ProgramadorTelitESP32-rescue.lib))
    (library (logical Regulator_Linear)
      (uri "C:\\Program Files\\KiCad\\share\\kicad\\library/Regulator_Linear.lib"))
    (library (logical Transistor_BJT)
      (uri "C:\\Program Files\\KiCad\\share\\kicad\\library/Transistor_BJT.lib"))
    (library (logical device)
      (uri "C:\\Program Files\\KiCad\\share\\kicad\\library/device.lib")))
  (nets
    (net (code 1) (name GND)
      (node (ref U2) (pin 25))
      (node (ref U2) (pin 2))
      (node (ref J2) (pin 6))
      (node (ref C3) (pin 2))
      (node (ref J3) (pin 6))
      (node (ref U1) (pin 2))
      (node (ref J1) (pin B12))
      (node (ref J1) (pin B1))
      (node (ref R2) (pin 2))
      (node (ref R1) (pin 1))
      (node (ref J1) (pin A12))
      (node (ref C2) (pin 1))
      (node (ref C1) (pin 1))
      (node (ref J1) (pin A1)))
    (net (code 2) (name /VBUS)
      (node (ref JP1) (pin 3))
      (node (ref J1) (pin A9))
      (node (ref U2) (pin 8))
      (node (ref U2) (pin 7))
      (node (ref J1) (pin A4))
      (node (ref U1) (pin 1))
      (node (ref U1) (pin 3))
      (node (ref J1) (pin B9))
      (node (ref C1) (pin 2))
      (node (ref J1) (pin B4)))
    (net (code 3) (name /VOUT)
      (node (ref JP1) (pin 2))
      (node (ref J2) (pin 1))
      (node (ref J3) (pin 1)))
    (net (code 4) (name "Net-(U2-Pad22)")
      (node (ref U2) (pin 22)))
    (net (code 5) (name /D+)
      (node (ref J1) (pin A6))
      (node (ref U2) (pin 3))
      (node (ref J1) (pin B6)))
    (net (code 6) (name "Net-(J1-PadA8)")
      (node (ref J1) (pin A8)))
    (net (code 7) (name "Net-(U2-Pad18)")
      (node (ref U2) (pin 18)))
    (net (code 8) (name "Net-(J1-PadB8)")
      (node (ref J1) (pin B8)))
    (net (code 9) (name "Net-(J1-PadS1)")
      (node (ref J1) (pin S1)))
    (net (code 10) (name "Net-(U1-Pad4)")
      (node (ref U1) (pin 4)))
    (net (code 11) (name /RTS)
      (node (ref R3) (pin 1))
      (node (ref Q1) (pin 1))
      (node (ref U2) (pin 19))
      (node (ref J2) (pin 5)))
    (net (code 12) (name /DTR)
      (node (ref R4) (pin 1))
      (node (ref Q1) (pin 4))
      (node (ref U2) (pin 23))
      (node (ref J2) (pin 4)))
    (net (code 13) (name /TXD)
      (node (ref J2) (pin 3))
      (node (ref U2) (pin 21))
      (node (ref J3) (pin 3)))
    (net (code 14) (name /RXD)
      (node (ref U2) (pin 20))
      (node (ref J3) (pin 2))
      (node (ref J2) (pin 2)))
    (net (code 15) (name /CHIP_PU)
      (node (ref J3) (pin 4))
      (node (ref Q1) (pin 6)))
    (net (code 16) (name /GPIO0)
      (node (ref Q1) (pin 3))
      (node (ref J3) (pin 5)))
    (net (code 17) (name "Net-(U2-Pad1)")
      (node (ref U2) (pin 1)))
    (net (code 18) (name "Net-(U2-Pad24)")
      (node (ref U2) (pin 24)))
    (net (code 19) (name "Net-(U2-Pad11)")
      (node (ref U2) (pin 11)))
    (net (code 20) (name "Net-(U2-Pad12)")
      (node (ref U2) (pin 12)))
    (net (code 21) (name "Net-(U2-Pad13)")
      (node (ref U2) (pin 13)))
    (net (code 22) (name "Net-(U2-Pad14)")
      (node (ref U2) (pin 14)))
    (net (code 23) (name "Net-(U2-Pad17)")
      (node (ref U2) (pin 17)))
    (net (code 24) (name "Net-(U2-Pad15)")
      (node (ref U2) (pin 15)))
    (net (code 25) (name /3V3)
      (node (ref C2) (pin 2))
      (node (ref JP1) (pin 1))
      (node (ref U1) (pin 5)))
    (net (code 26) (name "Net-(Q1-Pad5)")
      (node (ref Q1) (pin 5))
      (node (ref R3) (pin 2)))
    (net (code 27) (name "Net-(U2-Pad10)")
      (node (ref U2) (pin 10)))
    (net (code 28) (name "Net-(U2-Pad16)")
      (node (ref U2) (pin 16)))
    (net (code 29) (name "Net-(Q1-Pad2)")
      (node (ref Q1) (pin 2))
      (node (ref R4) (pin 2)))
    (net (code 30) (name /D-)
      (node (ref J1) (pin A7))
      (node (ref U2) (pin 4))
      (node (ref J1) (pin B7)))
    (net (code 31) (name "Net-(R5-Pad1)")
      (node (ref U2) (pin 9))
      (node (ref R5) (pin 1)))
    (net (code 32) (name /VDD)
      (node (ref C3) (pin 1))
      (node (ref R5) (pin 2))
      (node (ref U2) (pin 6))
      (node (ref U2) (pin 5)))
    (net (code 33) (name "Net-(J1-PadA5)")
      (node (ref J1) (pin A5))
      (node (ref R1) (pin 2)))
    (net (code 34) (name "Net-(J1-PadB5)")
      (node (ref R2) (pin 1))
      (node (ref J1) (pin B5)))))